<?xml version="1.0" encoding="UTF-8"?>
<svg width="60px" height="60px" viewBox="0 0 60 60" version="1.1" xmlns="http://www.w3.org/2000/svg" xmlns:xlink="http://www.w3.org/1999/xlink">
    <!-- Generator: Sketch 47.1 (45422) - http://www.bohemiancoding.com/sketch -->
    <title>102</title>
    <desc>Created with Sketch.</desc>
    <defs></defs>
    <g id="Page-1" stroke="none" stroke-width="1" fill="none" fill-rule="evenodd">
        <g id="Artboard" transform="translate(-1650.000000, -911.000000)" fill-rule="nonzero">
            <g id="051-nurse-copy" transform="translate(1653.000000, 916.000000)">
                <path d="M27.7871133,37.3426491 C27.3578555,36.911071 26.6602852,36.9093835 26.2288125,37.3384304 L26.218582,37.3486609 C25.7871094,37.7778132 25.7852109,38.475489 26.2143633,38.9069616 C26.4297305,39.123489 26.7125977,39.2318054 26.9955703,39.2318054 C27.2765391,39.2318054 27.5577188,39.125071 27.7725586,38.9111804 L27.7827891,38.9009499 C28.2143672,38.4716921 28.2162656,37.7740163 27.7871133,37.3426491 Z" id="Shape" fill="#000000"></path>
                <path d="M27.7748789,37.3506648 L27.7646484,37.3404343 C27.3342305,36.9101218 26.6365547,36.9101218 26.2062422,37.3404343 C25.7759297,37.7708523 25.7759297,38.4685281 26.2062422,38.8988406 L26.2164727,38.909071 C26.4315234,39.1242273 26.7136523,39.2318054 26.9955703,39.2318054 C27.2775937,39.2318054 27.5596172,39.1242273 27.7747734,38.909071 C28.2050859,38.4786531 28.2050859,37.7808718 27.7748789,37.3506648 Z" id="Shape" fill="#21AFB0"></path>
                <path d="M27.7748789,42.7984421 L27.7646484,42.7882116 C27.3342305,42.3578991 26.6365547,42.3578991 26.2062422,42.7882116 C25.7759297,43.2186296 25.7759297,43.9163054 26.2062422,44.3466179 L26.2164727,44.3568484 C26.4315234,44.5720046 26.7136523,44.6795827 26.9955703,44.6795827 C27.2775937,44.6795827 27.5596172,44.5720046 27.7747734,44.3568484 C28.2050859,43.9264304 28.2050859,43.2287546 27.7748789,42.7984421 Z" id="Shape" fill="#21AFB0"></path>
                <path d="M1.11628125,47.864739 L1.10183203,47.864739 C0.493277344,47.864739 0,48.3580163 0,48.966571 C0,49.5751257 0.493277344,50.0684031 1.10183203,50.0684031 L1.11628125,50.0684031 C1.72483594,50.0684031 2.21811328,49.5751257 2.21811328,48.966571 C2.21811328,48.3580163 1.72483594,47.864739 1.11628125,47.864739 Z" id="Shape" fill="#21AFB0"></path>
                <path d="M52.8893086,47.864739 L52.8748594,47.864739 C52.2663047,47.864739 51.7730273,48.3580163 51.7730273,48.966571 C51.7730273,49.5751257 52.2663047,50.0684031 52.8748594,50.0684031 L52.8893086,50.0684031 C53.4978633,50.0684031 53.9911406,49.5751257 53.9911406,48.966571 C53.9911406,48.3580163 53.4978633,47.864739 52.8893086,47.864739 Z" id="Shape" fill="#21AFB0"></path>
                <path d="M49.3101211,47.864739 L43.1971523,47.864739 L43.1971523,40.414532 C43.1971523,38.2667663 41.9009414,36.2266843 40.0450078,35.4533874 L36.4434609,33.9527781 C38.2249336,32.3091531 39.7233281,30.201782 40.8167227,27.7828562 C42.1463672,24.8414382 42.8491055,21.4933327 42.8491055,18.1004031 C42.8491055,12.4461179 40.9119609,7.11351243 37.518082,3.3774929 C37.3137475,3.23114702 37.0804474,3.08713423 36.8181818,2.94545455 C33.6495842,1.2338022 30.5524464,0.817785511 26.9328643,0.813883168 C23.3411261,0.813883168 20.3218338,1.27989205 17.1818182,2.94545455 C16.9173026,3.08572798 16.6828072,3.22763139 16.478332,3.37116477 C13.0811836,7.10771165 11.1419297,12.4424265 11.1419297,18.1001921 C11.1419297,24.4454031 13.535543,30.2459734 17.605793,33.9283093 L13.9461328,35.453282 C12.0903047,36.2266843 10.7941992,38.2666609 10.7941992,40.414321 L10.7941992,47.8645281 L4.68101953,47.8645281 C4.07246484,47.8645281 3.5791875,48.3578054 3.5791875,48.9663601 C3.5791875,49.5749148 4.07246484,50.0681921 4.68101953,50.0681921 L49.3101211,50.0681921 C49.9186758,50.0681921 50.4119531,49.5749148 50.4119531,48.9663601 C50.4119531,48.3578054 49.9186758,47.864739 49.3101211,47.864739 Z M37.1859609,6.49050852 C39.4051289,9.67028587 40.6455469,13.772071 40.6455469,18.1004031 C40.6455469,24.1401765 38.166293,29.8308484 34.1663906,33.0039812 L32.9537109,32.4986804 C32.7016406,32.3936335 32.5386914,32.1492624 32.5386914,31.8759929 L32.5386914,30.1602273 L35.418832,28.5087976 C35.4388711,28.4973015 35.4585938,28.4850671 35.478,28.4723054 C36.9166992,27.5221374 37.8626484,25.8342156 38.0100938,23.9549734 C38.0127305,23.9243874 38.0143125,23.8932741 38.014418,23.8619499 C38.014418,23.8598406 38.014418,20.5286101 38.014418,13.8682585 C38.014418,13.2597038 37.5211406,12.7664265 36.9125859,12.7664265 L30.9555,12.7664265 L32.4,10.8 C32.4138164,10.7409375 32.8909091,10.3090909 33.8727273,9.32727273 C34.5272727,8.67272727 35.6316839,7.7271392 37.1859609,6.49050852 Z M28.7034258,14.5531726 C28.9124648,14.8166335 29.2303477,14.9700906 29.5664766,14.9700906 L35.8104375,14.9700906 L35.8104375,23.8132234 C35.7103477,24.9784421 35.1310078,26.0462077 34.2898945,26.6158445 L28.3740469,30.0079304 C28.3539023,30.019532 28.3342852,30.0316609 28.3148789,30.0444226 C27.4890586,30.589907 26.5026094,30.5900124 25.6764727,30.0444226 C25.65675,30.0313445 25.6367109,30.0190046 25.6160391,30.0072976 L19.683,26.6154226 C18.8409375,26.045364 18.2820586,25.0026999 18.1807031,23.8134343 L18.1807031,14.970196 L25.8937383,14.970196 C26.1464414,14.970196 26.3914453,14.8833952 26.5877227,14.7242429 L28.62,13.0765046 L28.4937539,13.6179812 C28.4171836,13.9453562 28.4944922,14.2897116 28.7034258,14.5531726 Z M13.3455938,18.1005085 C13.3455938,13.7731257 14.5852734,9.67250071 16.8034922,6.49325071 C19.0217109,3.31400071 23.3792332,3.04385627 26.5877227,2.94545455 C29.9258894,2.84307573 36.7394197,3.21083556 36.4434609,5.89090909 C36.2461551,7.67762478 32.5993973,9.96949907 25.5031875,12.766532 L17.0787656,12.766532 C16.4702109,12.766532 15.9769336,13.2598093 15.9769336,13.868364 L15.9769336,23.8578366 C16.1248008,25.8341101 17.0650547,27.5278327 18.4955273,28.4725163 C18.5086758,28.4811648 19.4943867,29.0455281 21.4526602,30.1656062 L21.4526602,31.8760984 C21.4526602,32.1492624 21.2897109,32.3936335 21.0376406,32.4987859 L19.8945703,32.9750827 C15.7906758,29.7824382 13.3455938,24.2412156 13.3455938,18.1005085 Z M12.9977578,40.414532 C12.9977578,39.1726374 13.7697891,37.9142898 14.7936797,37.4876687 L21.8534414,34.5461452 L23.6856445,36.3783484 C23.9008008,36.5935046 24.1828242,36.7010827 24.4647422,36.7010827 C24.7466602,36.7010827 25.0287891,36.5933991 25.2438398,36.3783484 C25.6741523,35.9480359 25.6741523,35.2503601 25.2438398,34.8200476 L23.4261914,33.0023991 C23.574375,32.6531921 23.6563242,32.272239 23.6563242,31.8760984 L23.6563242,31.4253249 L24.4934297,31.9038366 C25.2669375,32.4061843 26.1312539,32.6573054 26.9955703,32.6573054 C27.8602031,32.6573054 28.7247305,32.4059734 29.4982383,31.9034148 L30.3348164,31.4237429 L30.3348164,31.8759929 C30.3348164,32.2720281 30.4167656,32.6529812 30.5648438,33.0021882 L28.7471953,34.8199421 C28.3168828,35.2502546 28.3168828,35.9479304 28.7471953,36.3782429 C28.9623516,36.5933991 29.244375,36.7009773 29.526293,36.7009773 C29.8083164,36.7009773 30.0903398,36.5932937 30.3053906,36.3782429 L32.1374883,34.5461452 L39.1973555,37.4876687 C40.2212461,37.9142898 40.9932773,39.172532 40.9932773,40.414532 L40.9932773,47.864739 L12.9977578,47.864739 L12.9977578,40.414532 Z" id="Shape" fill="#FFFFFF"></path>
            </g>
        </g>
    </g>
</svg>