<?xml version="1.0" encoding="UTF-8"?>
<svg width="50px" height="50px" viewBox="0 0 50 50" version="1.1" xmlns="http://www.w3.org/2000/svg" xmlns:xlink="http://www.w3.org/1999/xlink">
    <!-- Generator: Sketch 46.2 (44496) - http://www.bohemiancoding.com/sketch -->
    <title>12</title>
    <desc>Created with Sketch.</desc>
    <defs></defs>
    <g id="Page-1" stroke="none" stroke-width="1" fill="none" fill-rule="evenodd">
        <g id="Artboard" transform="translate(-542.000000, -130.000000)">
            <g id="Group-19" transform="translate(545.000000, 134.000000)" fill-rule="nonzero" fill="#21AFB0">
                <path d="M40.6948437,23.5353353 C40.209125,23.5353353 39.7607891,23.6586914 39.3630703,23.8446208 C38.7584141,23.0390462 37.8198906,22.5177816 36.7619141,22.5167074 C36.2151797,22.5167074 35.7122734,22.6678141 35.2800937,22.8942057 L35.2348906,22.9203451 L33.8839531,23.755013 C33.2783516,23.0006429 32.3712812,22.5172445 31.3536094,22.5167074 C30.806875,22.5167074 30.3039687,22.6678141 29.8717891,22.8942057 L29.8177344,22.9259847 L24.6453281,26.2259847 C23.4772656,25.8664795 22.1803828,25.4721517 20.9271562,25.1019043 C19.6051797,24.7111572 18.3338203,24.3480713 17.3147734,24.0802327 C16.8044766,23.9460449 16.3580312,23.8359375 15.9933125,23.757609 C15.8104375,23.7181315 15.6481875,23.6869792 15.5041562,23.663973 C15.3581484,23.6414144 15.2362031,23.6255697 15.0986172,23.6250326 C14.9923984,23.6255697 14.9004453,23.6352376 14.7957734,23.6485758 C14.4148125,23.7008545 13.8729766,23.8217041 13.2338594,23.9778239 C11.928125,24.297404 10.2615391,24.7623617 9.34071875,25.0234863 L9.34071875,23.3999837 C9.34071875,22.2733968 8.45582031,21.3515381 7.37421094,21.3515381 L1.96650781,21.3515381 C0.884898437,21.3518066 0,22.2734863 0,23.4000732 L0,39.2753255 C0,40.4019124 0.884898437,41.3237712 1.96650781,41.3237712 L7.37429687,41.3237712 C8.45582031,41.3237712 9.34080469,40.402002 9.34080469,39.2753255 L9.34080469,38.042749 C10.5079219,38.3074544 13.09825,38.8902181 15.8292578,39.4745931 C17.6763125,39.869458 19.5852422,40.2647705 21.1618516,40.5627767 C21.9504141,40.711735 22.655875,40.8362549 23.2335469,40.9243408 C23.8161172,41.0119792 24.2502734,41.0662272 24.5810469,41.0682861 C24.8386016,41.0673014 25.0825781,41.0165446 25.3459766,40.9407227 C25.8361641,40.7967773 26.3940703,40.5525716 27.0326719,40.2294108 C29.2552734,39.1006755 32.4473359,36.9862549 35.4585,34.8937663 C38.4637344,32.8038737 41.2753516,30.7395833 42.6528437,29.7517497 C43.5151406,29.1326416 43.9999141,28.0863525 43.9999141,26.9791911 C43.9990547,25.0778239 42.5206719,23.5358724 40.6948437,23.5353353 Z M7.86585938,39.275415 C7.86585938,39.5529215 7.64070312,39.7874593 7.37429688,39.7874593 L1.96650781,39.7874593 C1.70010156,39.7874593 1.47494531,39.5529215 1.47494531,39.275415 L1.47494531,23.4000732 C1.47494531,23.1225667 1.70010156,22.888029 1.96650781,22.888029 L7.37429688,22.888029 C7.64070312,22.888029 7.86585938,23.1225667 7.86585938,23.4000732 L7.86585938,39.275415 Z M41.8171875,28.48632 C40.1230156,29.7020671 36.3322266,32.4903809 32.6626953,34.9731689 C30.8293906,36.213444 29.0266797,37.3765544 27.5483828,38.2193685 C26.8100078,38.6408203 26.1512109,38.9813477 25.6246719,39.2093506 C25.3617031,39.3229492 25.1315625,39.4085286 24.9491172,39.4612549 C24.7677031,39.5149658 24.6309766,39.532959 24.5813906,39.5318848 C24.4206016,39.5334066 23.9949531,39.4893636 23.4477891,39.4043213 C21.5108438,39.1088216 17.8851406,38.3544515 14.7632891,37.6759033 C13.2009453,37.3363607 11.7619219,37.0157959 10.7133125,36.7801839 C10.1041875,36.6434001 9.63419531,36.5364258 9.34114844,36.4703613 L9.34114844,26.6161947 C9.48526563,26.5746582 9.67398438,26.5209473 9.90060156,26.4569417 C10.6779063,26.237264 11.8641016,25.9079264 12.9280078,25.6349854 C13.4594453,25.498291 13.9614063,25.3764567 14.3600703,25.2898031 C14.5586719,25.2468343 14.7322656,25.2125488 14.8654688,25.1904378 C14.9961797,25.1678792 15.0980156,25.1597331 15.0989609,25.1612549 C15.1014531,25.1607178 15.178625,25.1658203 15.2838125,25.1828288 C15.6908984,25.2462972 16.5251797,25.4495931 17.5413047,25.726652 C20.6036016,26.5598877 25.4322578,28.0659424 27.3830391,28.6829915 C28.0579922,28.8949707 28.6691797,29.2145508 29.07025,29.6022542 C29.2718594,29.7958822 29.4232813,30.0027588 29.5250313,30.2265544 C29.6267813,30.4513346 29.6842734,30.6946452 29.6853047,30.9921143 C29.6847891,31.5948405 29.4527578,32.1336507 29.0737734,32.5295003 C28.6971953,32.9202474 28.1858672,33.1593506 27.6151563,33.1649902 L25.7120703,32.9709147 L19.2172578,32.1023193 C18.8130938,32.0486084 18.4433906,32.3455404 18.3913125,32.7665446 C18.3391484,33.1875488 18.6253203,33.5721191 19.0289688,33.6263672 L25.5448359,34.4973796 L27.5615313,34.703182 L27.5979688,34.703182 C29.5649063,34.7026449 31.1592188,33.0419027 31.16025,30.9924723 C31.1611953,30.4767578 31.051625,29.9918376 30.8574063,29.5672526 C30.564875,28.9276449 30.0944531,28.4323405 29.5625,28.0555583 C29.0285703,27.6776123 28.4258906,27.4083415 27.8123828,27.2136393 C27.4702656,27.1055908 27.0390313,26.9693441 26.5465234,26.8151937 L30.5488047,24.2613281 C30.8083359,24.1282145 31.0738828,24.0529297 31.3550703,24.0523926 C31.8319375,24.0518555 32.2625703,24.2444092 32.5881016,24.5558431 L30.6108516,25.7772298 C30.2608281,25.9934163 30.1453281,26.4649984 30.3532969,26.8296061 C30.5612656,27.1942139 31.0135547,27.3150635 31.3640938,27.0985189 L35.9538438,24.2629395 C36.2149219,24.1282145 36.4818438,24.0524821 36.7640625,24.0524821 C37.2728984,24.051945 37.7306016,24.2726969 38.0624922,24.6229818 L32.718125,27.9245036 C32.3675859,28.1406901 32.2526016,28.6122721 32.4605703,28.977417 C32.6685391,29.3420247 33.1208281,29.4623372 33.4713672,29.2457031 L39.2503203,25.6752686 C39.3063516,25.6655111 39.3628984,25.6511882 39.4179844,25.6265706 C39.5364063,25.574292 39.6328281,25.4913981 39.7069922,25.3930176 L39.887375,25.2813883 C40.1484531,25.1466634 40.415375,25.070931 40.6975078,25.070931 C41.2043672,25.0714681 41.6576875,25.2835368 41.9914688,25.6297038 C42.3237891,25.9774821 42.5272891,26.4500488 42.5278906,26.9785645 C42.5251406,27.6229167 42.2419766,28.1847331 41.8171875,28.48632 Z" id="Shape"></path>
                <path d="M28.0888737,5.11569444 C28.512792,5.11569444 28.8567512,5.47128673 28.8567971,5.91148843 C28.8567971,6.35138429 28.5118744,6.70725694 28.0888984,6.70725694 L25.6666157,6.70725694 C25.5752488,8.09948857 25.046309,9.25726728 24.092382,10.1319721 C22.6785921,11.4288721 20.5908334,11.9600394 18.2651763,12.0023041 L25.0029017,20.0502021 C25.2802477,20.3840367 25.2447379,20.887739 24.922834,21.1743598 C24.7819766,21.2999274 24.6039451,21.3666667 24.4218474,21.3666667 C24.2013161,21.3666667 23.9889962,21.2688999 23.8416713,21.0926471 L15.9442796,11.6595035 C15.7373151,11.4096484 15.6983614,11.0537387 15.8472755,10.7668092 C15.9935775,10.4784388 16.2996418,10.3157527 16.6024869,10.347059 C16.6809141,10.355589 16.7992978,10.3664311 16.9635641,10.3773463 C18.0722786,10.4510179 19.3051738,10.4056775 20.463039,10.1542093 C21.5507313,9.91798135 22.4432167,9.51919256 23.0754506,8.93948617 C23.6912087,8.37324524 24.0420216,7.62992804 24.1256191,6.70725694 L16.2558987,6.70725694 C15.8329034,6.70725694 15.488,6.35138968 15.488,5.91148843 C15.488,5.47156905 15.8328964,5.11569444 16.2558987,5.11569444 L24.029184,5.11569444 C23.6907748,3.39827505 22.5839739,2.31133905 21.2859237,2.0582037 L16.2558987,2.0582037 C15.832898,2.0582037 15.488,1.70235651 15.488,1.26243519 C15.488,0.822533932 15.8329034,0.466666667 16.2558987,0.466666667 L28.0888737,0.466666667 C28.5118363,0.466666667 28.8567512,0.822516745 28.8567971,1.26243519 C28.8567971,1.70235112 28.5118797,2.0582037 28.0888984,2.0582037 L24.2016646,2.0582037 C24.9130708,2.8536649 25.3948002,3.89209508 25.5814103,5.11569444 L28.0888737,5.11569444 Z" id="Shape"></path>
            </g>
            <text id="12" font-family="Lato-Bold, Lato" font-size="18" font-weight="bold" line-spacing="31" letter-spacing="1.60714293" fill="#2E2E2E">
                <tspan x="555.452857" y="194">12</tspan>
            </text>
        </g>
    </g>
</svg>