<?xml version="1.0" encoding="UTF-8"?>
<svg width="50px" height="50px" viewBox="0 0 50 50" version="1.1" xmlns="http://www.w3.org/2000/svg" xmlns:xlink="http://www.w3.org/1999/xlink">
    <!-- Generator: Sketch 46.2 (44496) - http://www.bohemiancoding.com/sketch -->
    <title>23</title>
    <desc>Created with Sketch.</desc>
    <defs></defs>
    <g id="Page-1" stroke="none" stroke-width="1" fill="none" fill-rule="evenodd">
        <g id="Artboard" transform="translate(-447.000000, -318.000000)">
            <g id="cloud-computing" transform="translate(452.000000, 326.000000)" fill-rule="nonzero" fill="#9B9B9B">
                <path d="M33.984,11.1293333 C33.632,5.12933333 28.686,0.333333333 22.7226667,0.333333333 C19.1026667,0.333333333 15.5973333,2.10866667 13.426,5.00533333 C13.376,4.97933333 13.3233333,4.96133333 13.2726667,4.93733333 C13.1406667,4.87333333 13.0066667,4.81266667 12.87,4.758 C12.794,4.728 12.718,4.70066667 12.6413333,4.674 C12.506,4.62666667 12.3686667,4.58466667 12.2286667,4.54666667 C12.152,4.526 12.076,4.50466667 11.9986667,4.48733333 C11.8486667,4.45333333 11.6953333,4.42733333 11.5406667,4.404 C11.4733333,4.394 11.4073333,4.38066667 11.3393333,4.37333333 C11.118,4.34866667 10.894,4.33333333 10.6666667,4.33333333 C7.358,4.33333333 4.66666667,7.02466667 4.66666667,10.3333333 C4.66666667,10.4193333 4.672,10.5033333 4.678,10.5873333 C1.90466667,12.0986667 0,15.266 0,18.436 C0,23.158 3.84133333,27 8.56333333,27 L12,27 C12.3686667,27 12.6666667,26.702 12.6666667,26.3333333 C12.6666667,25.9646667 12.3686667,25.6666667 12,25.6666667 L8.56333333,25.6666667 C4.57666667,25.6666667 1.33333333,22.4233333 1.33333333,18.436 C1.33333333,15.6666667 3.13666667,12.792 5.622,11.6006667 L6,11.42 L6,11 C6,10.92 6.00533333,10.8386667 6.01,10.7566667 L6.01733333,10.6333333 L6.00866667,10.504 C6.00466667,10.4473333 6,10.3906667 6,10.3333333 C6,7.76066667 8.094,5.66666667 10.6666667,5.66666667 C10.8726667,5.66666667 11.076,5.68466667 11.278,5.71133333 C11.33,5.718 11.382,5.72666667 11.4333333,5.73533333 C11.6113333,5.76466667 11.7866667,5.80333333 11.9593333,5.85333333 C11.9826667,5.86 12.0066667,5.86466667 12.03,5.87133333 C12.22,5.92933333 12.4053333,6.00266667 12.5866667,6.08533333 C12.634,6.10666667 12.68,6.13 12.7266667,6.15266667 C12.8866667,6.232 13.0433333,6.31866667 13.1946667,6.41666667 C14.4793333,7.24866667 15.3333333,8.692 15.3333333,10.3333333 C15.3333333,10.702 15.6313333,11 16,11 C16.3686667,11 16.6666667,10.702 16.6666667,10.3333333 C16.6666667,8.49733333 15.836,6.854 14.5333333,5.75266667 C16.4446667,3.25266667 19.592,1.66666667 22.7226667,1.66666667 C27.886,1.66666667 32.1746667,5.75666667 32.622,10.9253333 C31.9413333,10.8773333 30.9206667,10.8526667 29.9,11.008 C29.536,11.0633333 29.286,11.4033333 29.3413333,11.7673333 C29.3913333,12.0973333 29.6753333,12.334 29.9993333,12.334 C30.0326667,12.334 30.0666667,12.3313333 30.1,12.326 C31.5846667,12.1013333 33.132,12.312 33.2226667,12.3246667 C36.3266667,12.9146667 38.6666667,15.774 38.6666667,18.9813333 C38.6666667,22.6673333 35.6673333,25.6666667 31.9813333,25.6666667 L29.3333333,25.6666667 C28.9646667,25.6666667 28.6666667,25.9646667 28.6666667,26.3333333 C28.6666667,26.702 28.9646667,27 29.3333333,27 L31.9813333,27 C36.4026667,27 40,23.4026667 40,18.9813333 C40,15.322 37.4486667,12.04 33.984,11.1293333 Z" id="Shape"></path>
                <path d="M25.5286667,27.862 L21.3333333,32.0573333 L21.3333333,18.3333333 C21.3333333,17.9646667 21.0353333,17.6666667 20.6666667,17.6666667 C20.298,17.6666667 20,17.9646667 20,18.3333333 L20,32.0573333 L15.8046667,27.862 C15.544,27.6013333 15.1226667,27.6013333 14.862,27.862 C14.6013333,28.1226667 14.6013333,28.544 14.862,28.8046667 L20.1946667,34.1373333 C20.256,34.1993333 20.33,34.248 20.412,34.282 C20.4933333,34.316 20.58,34.3333333 20.6666667,34.3333333 C20.7533333,34.3333333 20.84,34.316 20.9213333,34.282 C21.0033333,34.248 21.0773333,34.1993333 21.1386667,34.1373333 L26.4713333,28.8046667 C26.732,28.544 26.732,28.1226667 26.4713333,27.862 C26.2106667,27.6013333 25.7893333,27.6013333 25.5286667,27.862 Z" id="Shape" transform="translate(20.666667, 26.000000) scale(1, -1) translate(-20.666667, -26.000000) "></path>
            </g>
            <text id="23" font-family="Lato-Bold, Lato" font-size="18" font-weight="bold" line-spacing="31" letter-spacing="1.60714293" fill="#2E2E2E">
                <tspan x="460.452857" y="381">23</tspan>
            </text>
        </g>
    </g>
</svg>