<?xml version="1.0" encoding="UTF-8"?>
<svg width="50px" height="50px" viewBox="0 0 50 50" version="1.1" xmlns="http://www.w3.org/2000/svg" xmlns:xlink="http://www.w3.org/1999/xlink">
    <!-- Generator: Sketch 46.2 (44496) - http://www.bohemiancoding.com/sketch -->
    <title>4</title>
    <desc>Created with Sketch.</desc>
    <defs></defs>
    <g id="Page-1" stroke="none" stroke-width="1" fill="none" fill-rule="evenodd">
        <g id="Artboard" transform="translate(-341.000000, -36.000000)" fill-rule="nonzero" fill="#FFFFFF">
            <g id="Group" transform="translate(344.000000, 41.000000)">
                <path d="M39.28459,11.4688416 L39.2075742,11.5433243 C36.1076906,4.68160758 29.1762737,0.21264688 21.5132073,0.00781951433 L21.5132073,0.00781951433 C13.7153634,-0.206318186 6.48551053,3.9926428 3.08719088,10.7612562 C2.65397733,11.5991863 3.95361799,12.2322891 4.38683154,11.394359 C7.56373093,5.10988298 14.2159657,1.26471471 21.4361916,1.40436973 C28.512013,1.61850743 34.798423,5.59402039 37.7635291,11.813324 C36.3868727,12.3719441 35.4530568,13.703322 35.4530568,15.2395272 C35.4530568,17.2691802 37.185911,18.9450405 39.28459,18.9450405 C41.383269,18.9450405 43.1161232,17.2691802 43.1161232,15.2395272 C43.1161232,13.1447019 41.383269,11.4688416 39.28459,11.4688416 Z M39.28459,17.5391799 C37.9079336,17.5391799 36.897102,16.4871121 36.897102,15.2302169 C36.9067289,13.9081493 37.9175606,12.8560815 39.28459,12.8560815 C40.6612464,12.8560815 41.672078,13.9081493 41.672078,15.2302169 C41.672078,16.4871121 40.6612464,17.5391799 39.28459,17.5391799 Z" id="Shape"></path>
                <g id="indian-rupee" transform="translate(16.192624, 13.261528)">
                    <path d="M9.43777938,3.33811027 C9.72107458,3.33811027 9.95142708,3.56483839 9.9514579,3.84623368 C9.9514579,4.12738407 9.72041144,4.35433881 9.43779799,4.35433881 L7.5493244,4.35433881 C7.49336388,5.36446576 7.10034533,6.2006979 6.37984339,6.82969505 C5.30036033,7.77246247 3.68413944,8.14569662 1.88891038,8.1579636 L7.06037594,14.0389457 C7.24661563,14.2523724 7.22274323,14.5747674 7.00684353,14.7577883 C6.91267944,14.8377073 6.79379823,14.8801366 6.67220431,14.8801366 C6.52491986,14.8801366 6.38310879,14.817967 6.28453456,14.7056901 L0.328750615,7.93272684 C0.189742108,7.7729548 0.163551815,7.54513114 0.263692344,7.36142502 C0.36152138,7.17784074 0.56643403,7.07414192 0.769690249,7.09413956 C0.827963466,7.10019361 0.918253401,7.10806636 1.04308999,7.11596387 C1.88475489,7.16920989 2.82018227,7.13645796 3.70026092,6.95448212 C4.5308832,6.78273248 5.21416485,6.49205681 5.70073337,6.06729881 C6.19381868,5.63560059 6.46755564,5.06409413 6.51980938,4.35433881 L0.513659908,4.35433881 C0.231032481,4.35433881 0,4.12738851 0,3.84623368 C0,3.56506526 0.231027802,3.33811027 0.513659908,3.33811027 L6.45510081,3.33811027 C6.21365589,2.03582786 5.34356767,1.20742919 4.30717287,1.01621026 L0.513659908,1.01621026 C0.231027854,1.01621026 0,0.789273804 0,0.508105128 C0,0.226950294 0.231032481,0 0.513659908,0 L9.43777938,0 C9.72038443,0 9.9514271,0.226941712 9.9514579,0.508105128 C9.9514579,0.789269363 9.72041606,1.01621026 9.43779799,1.01621026 L6.35421476,1.01621026 C6.95016964,1.60160447 7.34957598,2.39259283 7.49029968,3.33811027 L9.43777938,3.33811027 Z" id="Shape"></path>
                </g>
                <path d="M38.7711902,28.2141754 C35.7040596,34.5959459 29.1519848,38.6932275 21.9541983,38.5544934 C14.7564118,38.4805018 8.3467735,34.3924691 5.42207926,28.0106986 C6.70400693,27.3817705 7.63459146,26.1331632 7.63459146,24.6810792 C7.6250957,22.6740586 5.9158588,21 3.77931269,21 C1.70923689,21 0,22.6648097 0,24.6810792 C0,26.7620913 1.70923689,28.426901 3.77931269,28.426901 C3.92174909,28.426901 3.99771518,28.3529095 4.0641855,28.3529095 C4.0641855,28.3529095 4.0641855,28.3529095 4.0641855,28.426901 C7.13131615,35.3636081 14.1107001,39.8770922 21.8782322,39.9418348 C29.6457643,40.0805689 36.7675847,35.705819 40.0531179,28.8431035 C40.4139568,28.0106986 39.1225333,27.3817705 38.7711902,28.2141754 Z M3.77931269,27.0488086 C2.49738502,27.0488086 1.42436408,26.003678 1.42436408,24.6903282 C1.42436408,23.4324719 2.49738502,22.3965904 3.77931269,22.3965904 C5.13720644,22.3965904 6.20073162,23.4417209 6.20073162,24.6903282 C6.20073162,26.012927 5.12771068,27.0488086 3.77931269,27.0488086 Z" id="Shape"></path>
            </g>
        </g>
    </g>
</svg>