<?xml version="1.0" encoding="UTF-8"?>
<svg width="85px" height="85px" viewBox="0 0 85 85" version="1.1" xmlns="http://www.w3.org/2000/svg" xmlns:xlink="http://www.w3.org/1999/xlink">
    <!-- Generator: Sketch 46.2 (44496) - http://www.bohemiancoding.com/sketch -->
    <title>43</title>
    <desc>Created with Sketch.</desc>
    <defs></defs>
    <g id="Page-1" stroke="none" stroke-width="1" fill="none" fill-rule="evenodd">
        <g id="Artboard" transform="translate(-1040.000000, -232.000000)">
            <g id="Group-12" transform="translate(1055.000000, 239.000000)" fill="#000000">
                <g id="Page-1">
                    <path d="M17.3979565,21.3824876 L25.9809661,21.3824876 L25.9809661,9.52939355 L17.3979565,9.52939355 L17.3979565,21.3824876 Z M18.326149,59.4969517 L13.4545793,59.4969517 L13.4545793,23.7061881 L16.2382701,23.7061881 L27.1410959,23.7061881 L29.6924059,23.7061881 L29.6924059,59.4969517 L22.50102,59.4969517 C21.8606425,59.4969517 21.3413336,60.0167852 21.3413336,60.6588019 C21.3413336,61.3003743 21.8606425,61.8206522 22.50102,61.8206522 L48.6025419,61.8206522 C49.2433628,61.8206522 49.7622283,61.3003743 49.7622283,60.6588019 C49.7622283,60.0167852 49.2433628,59.4969517 48.6025419,59.4969517 L32.0122222,59.4969517 L32.0122222,22.5443378 C32.0122222,21.9018769 31.4933567,21.3820433 30.8520923,21.3820433 L28.3007823,21.3820433 L28.3007823,8.367099 C28.3007823,7.72508232 27.7814734,7.20480445 27.1410959,7.20480445 L22.8491476,7.20480445 L22.8491476,1.16273885 C22.8491476,0.520722176 22.3302822,0 21.6894613,0 C21.0490838,0 20.5297749,0.520722176 20.5297749,1.16273885 L20.5297749,7.20480445 L16.2382701,7.20480445 C15.5974491,7.20480445 15.0781402,7.72508232 15.0781402,8.367099 L15.0781402,21.3820433 L12.2948929,21.3820433 C11.6536285,21.3820433 11.1343196,21.9018769 11.1343196,22.5443378 L11.1343196,59.4969517 L1.15968637,59.4969517 C0.518865414,59.4969517 0,60.0167852 0,60.6588019 C0,61.3003743 0.518865414,61.8206522 1.15968637,61.8206522 L18.326149,61.8206522 C18.96697,61.8206522 19.4858354,61.3003743 19.4858354,60.6588019 C19.4858354,60.0167852 18.96697,59.4969517 18.326149,59.4969517 Z" id="Fill-1"></path>
                    <path d="M23.7771739,55.9312819 C23.7771739,56.5576339 24.2029903,57.0652174 24.7284427,57.0652174 C25.253895,57.0652174 25.6793478,56.5576339 25.6793478,55.9312819 L25.6793478,52.4921977 C25.6793478,51.8667126 25.253895,51.3586957 24.7284427,51.3586957 C24.2029903,51.3586957 23.7771739,51.8667126 23.7771739,52.4921977 L23.7771739,55.9312819 Z" id="Fill-3"></path>
                    <path d="M24.7284427,48.5054348 C25.2535314,48.5054348 25.6793478,47.9952938 25.6793478,47.3662215 L25.6793478,26.8189967 C25.6793478,26.1894888 25.2535314,25.6793478 24.7284427,25.6793478 C24.2029903,25.6793478 23.7771739,26.1894888 23.7771739,26.8189967 L23.7771739,47.3662215 C23.7771739,47.9952938 24.2029903,48.5054348 24.7284427,48.5054348" id="Fill-4"></path>
                    <path d="M19.0217391,26.812936 C19.0217391,26.1869699 18.5959227,25.6793478 18.070834,25.6793478 C17.5453816,25.6793478 17.1195652,26.1869699 17.1195652,26.812936 L17.1195652,30.2522814 C17.1195652,30.878681 17.5453816,31.3858696 18.070834,31.3858696 C18.5959227,31.3858696 19.0217391,30.878681 19.0217391,30.2522814 L19.0217391,26.812936 Z" id="Fill-5"></path>
                    <path d="M18.070834,33.2880435 C17.5457453,33.2880435 17.1195652,33.7977488 17.1195652,34.4272567 L17.1195652,54.9740459 C17.1195652,55.6039894 17.5457453,56.1141304 18.070834,56.1141304 C18.5959227,56.1141304 19.0217391,55.6039894 19.0217391,54.9740459 L19.0217391,34.4272567 C19.0217391,33.7977488 18.5959227,33.2880435 18.070834,33.2880435" id="Fill-6"></path>
                    <path d="M21.875,10.4619565 C21.3498109,10.4619565 20.923913,10.9986904 20.923913,11.6610136 L20.923913,18.773769 C20.923913,19.4360922 21.3498109,19.9728261 21.875,19.9728261 C22.4001891,19.9728261 22.826087,19.4360922 22.826087,18.773769 L22.826087,11.6610136 C22.826087,10.9986904 22.4001891,10.4619565 21.875,10.4619565" id="Fill-7"></path>
                </g>
                <g id="Page-1" transform="translate(21.875000, 31.250000)">
                    <path d="M13.6942652,28.8342606 L10.0539714,28.8342606 L10.0539714,2.08951418 L12.1340919,2.08951418 L20.2812585,2.08951418 L22.1877319,2.08951418 L22.1877319,28.8342606 L23.921221,28.8342606 L23.921221,1.22131839 C23.921221,0.741237658 23.5334974,0.352790593 23.0543107,0.352790593 L21.1478373,0.352790593 L11.2671817,0.352790593 L9.18739253,0.352790593 C8.70820592,0.352790593 8.32015093,0.741237658 8.32015093,1.22131839 L8.32015093,28.8342606 L0.866578829,28.8342606 C0.387723606,28.8342606 0,29.2227077 0,29.7024564 C0,30.1818731 0.387723606,30.5706522 0.866578829,30.5706522 L13.6942652,30.5706522 C14.1731204,30.5706522 14.560844,30.1818731 14.560844,29.7024564 C14.560844,29.2227077 14.1731204,28.8342606 13.6942652,28.8342606 Z" id="Fill-1"></path>
                    <path d="M17.7675585,26.169804 C17.7675585,26.6378473 18.085751,27.0171405 18.4783967,27.0171405 C18.8710425,27.0171405 19.1889632,26.6378473 19.1889632,26.169804 L19.1889632,23.5999389 C19.1889632,23.1325435 18.8710425,22.7529264 18.4783967,22.7529264 C18.085751,22.7529264 17.7675585,23.1325435 17.7675585,23.5999389 L17.7675585,26.169804 Z" id="Fill-3"></path>
                    <path d="M18.4783967,20.6208194 C18.8707707,20.6208194 19.1889632,20.2396151 19.1889632,19.7695392 L19.1889632,4.41556898 C19.1889632,3.94516747 18.8707707,3.56396321 18.4783967,3.56396321 C18.085751,3.56396321 17.7675585,3.94516747 17.7675585,4.41556898 L17.7675585,19.7695392 C17.7675585,20.2396151 18.085751,20.6208194 18.4783967,20.6208194" id="Fill-4"></path>
                    <path d="M14.2140468,4.41104007 C14.2140468,3.9432852 13.8958543,3.56396321 13.5034803,3.56396321 C13.1108346,3.56396321 12.7926421,3.9432852 12.7926421,4.41104007 L12.7926421,6.9811004 C12.7926421,7.4491792 13.1108346,7.82817726 13.5034803,7.82817726 C13.8958543,7.82817726 14.2140468,7.4491792 14.2140468,6.9811004 L14.2140468,4.41104007 Z" id="Fill-5"></path>
                    <path d="M13.5034803,9.24958194 C13.1111064,9.24958194 12.7926421,9.63046067 12.7926421,10.1008622 L12.7926421,25.4545068 C12.7926421,25.9252339 13.1111064,26.3064381 13.5034803,26.3064381 C13.8958543,26.3064381 14.2140468,25.9252339 14.2140468,25.4545068 L14.2140468,10.1008622 C14.2140468,9.63046067 13.8958543,9.24958194 13.5034803,9.24958194" id="Fill-6"></path>
                </g>
            </g>
            <text id="43" font-family="Lato-Bold, Lato" font-size="18" font-weight="bold" line-spacing="31" letter-spacing="1.60714293" fill="#2E2E2E">
                <tspan x="1070.45286" y="221">43</tspan>
            </text>
        </g>
    </g>
</svg>