<?xml version="1.0" encoding="UTF-8"?>
<svg width="60px" height="60px" viewBox="0 0 60 60" version="1.1" xmlns="http://www.w3.org/2000/svg" xmlns:xlink="http://www.w3.org/1999/xlink">
    <!-- Generator: Sketch 46.2 (44496) - http://www.bohemiancoding.com/sketch -->
    <title>69</title>
    <desc>Created with Sketch.</desc>
    <defs></defs>
    <g id="Page-1" stroke="none" stroke-width="1" fill="none" fill-rule="evenodd">
        <g id="Artboard" transform="translate(-1698.000000, -789.000000)" fill-rule="nonzero" fill="#000000">
            <g id="user-1" transform="translate(1712.000000, 800.000000)">
                <path d="M16.5,43 C10.7931522,43 0,42.1013 0,38.7 L0,37.0961 C0,34.7282333 1.29202174,32.5538667 3.37245652,31.4201 L10.0162174,27.5766167 C10.0628478,27.5508167 10.1905435,27.4741333 10.5083478,27.2333333 L5.22476087,27.2333333 C4.9256087,27.262 3.4076087,27.3644833 2.11558696,26.5919167 C1.60121739,26.2844667 1.23821739,25.7921167 1.09186957,25.2037333 C0.944086957,24.6074667 1.04165217,23.9653333 1.36017391,23.4421667 C2.57041304,21.4519833 5.42204348,16.2332167 5.7836087,10.7758 C5.90628261,8.91461667 6.25708696,7.36375 6.85467391,6.0372 C8.08428261,3.30885 10.7135217,0.04515 16.2625435,0 C25.7342609,0.0774 26.0506304,9.6621 26.0520652,9.75885 C26.1625435,15.4714 29.6971304,21.0965167 31.2108261,23.2493833 C31.6132826,23.822 31.7338043,24.5372333 31.5422609,25.2123333 C31.3521522,25.8817 30.8786739,26.4220667 30.2430652,26.6944 C28.5191739,27.4332833 26.3648478,27.2390667 26.2737391,27.2290333 L20.7720652,27.2333333 C21.0095217,27.5981167 21.2685,27.9084333 21.512413,28.0302667 L29.3872174,31.4365833 C31.6290652,32.5560167 33,34.77195 33,37.23585 L33,38.7 C33,42.1013 22.2068478,43 16.5,43 Z M5.18745652,25.8 L10.89,25.8 C11.4538696,25.8 11.9373913,26.144 12.1224783,26.6772 C12.3068478,27.20825 12.1411304,27.7772833 11.6992174,28.1255833 C11.0894348,28.6064667 10.8491087,28.7555333 10.721413,28.8257667 L4.07621739,32.6699667 C2.44056522,33.5600667 1.43478261,35.2528333 1.43478261,37.0961 L1.43478261,38.7 C1.43478261,39.6725167 6.75208696,41.5666667 16.5,41.5666667 C26.247913,41.5666667 31.5652174,39.6725167 31.5652174,38.7 L31.5652174,37.23585 C31.5652174,35.3173333 30.4984565,33.5930333 28.7810217,32.7359 L20.9062174,29.3295833 C20.1988696,28.9769833 19.7626957,28.31335 19.5151957,27.8152667 C19.2992609,27.3816833 19.3236522,26.8757167 19.5797609,26.4629167 C19.8380217,26.0479667 20.2835217,25.8 20.7720652,25.8 L26.3433261,25.8 C26.4301304,25.80645 28.2967826,25.9705667 29.6784783,25.3778833 C29.9152174,25.2761167 30.0916957,25.0733 30.1634348,24.82175 C30.2373261,24.56375 30.191413,24.2914167 30.0386087,24.0742667 C28.4488696,21.8131833 24.737087,15.89495 24.6187174,9.78823333 C24.6101087,9.45211667 24.3188478,1.49926667 16.2625435,1.43333333 C11.4847174,1.47275 9.21991304,4.27921667 8.16319565,6.62558333 C7.63663043,7.79446667 7.32671739,9.18265 7.21552174,10.8711167 C6.83315217,16.6445833 3.85167391,22.1063 2.58691304,24.1860667 C2.46567391,24.3860167 2.42765217,24.6311167 2.48432609,24.8590167 C2.53741304,25.0740167 2.66797826,25.2524667 2.85091304,25.3614 C3.83086957,25.9462 5.08773913,25.8050167 5.09993478,25.8050167 L5.18745652,25.8 Z" id="Shape"></path>
            </g>
        </g>
    </g>
</svg>