<?xml version="1.0" encoding="UTF-8"?>
<svg width="60px" height="60px" viewBox="0 0 60 60" version="1.1" xmlns="http://www.w3.org/2000/svg" xmlns:xlink="http://www.w3.org/1999/xlink">
    <!-- Generator: Sketch 46.2 (44496) - http://www.bohemiancoding.com/sketch -->
    <title>79</title>
    <desc>Created with Sketch.</desc>
    <defs></defs>
    <g id="Page-1" stroke="none" stroke-width="1" fill="none" fill-rule="evenodd">
        <g id="Artboard" transform="translate(-1419.000000, -911.000000)" fill-rule="nonzero">
            <g id="051-maid" transform="translate(1422.000000, 913.000000)">
                <path d="M1.09634766,51.8210815 L1.08215646,51.8210815 C0.48446882,51.8210815 0,52.3055504 0,52.903238 C0,53.5009256 0.48446882,53.9853945 1.08215646,53.9853945 L1.09634766,53.9853945 C1.6940353,53.9853945 2.17850412,53.5009256 2.17850412,52.903238 C2.1786077,52.3055504 1.6940353,51.8210815 1.09634766,51.8210815 Z" id="Shape" fill="#21AFB0"></path>
                <path d="M51.9458925,51.8210815 L51.9317013,51.8210815 C51.3340137,51.8210815 50.8495449,52.3055504 50.8495449,52.903238 C50.8495449,53.5009256 51.3340137,53.9853945 51.9317013,53.9853945 L51.9458925,53.9853945 C52.5435801,53.9853945 53.028049,53.5009256 53.028049,52.903238 C53.0281526,52.3055504 52.5436837,51.8210815 51.9458925,51.8210815 Z" id="Shape" fill="#21AFB0"></path>
                <path d="M52.2931484,25.4229597 L42.5428638,25.4229597 C41.9451761,25.4229597 41.4607073,25.9074285 41.4607073,26.5051161 L41.4607073,34.1830716 C41.4607073,37.097757 43.5660801,39.5284916 46.335746,40.0389603 L46.335746,40.4890388 L46.2583677,40.4890388 C45.6606801,40.4890388 45.1762113,40.9735076 45.1762113,41.5711952 C45.1762113,42.1688829 45.6606801,42.6533517 46.2583677,42.6533517 L46.335746,42.6533517 L46.335746,50.8419831 L42.7684727,50.8419831 L42.7684727,43.5247119 C42.7684727,41.4152992 41.4954084,39.4116473 39.6726165,38.6521592 L32.7078463,35.7502148 C32.4602773,35.6470438 32.3001343,35.4070365 32.3001343,35.1386468 L32.3001343,33.4534162 L35.1288438,31.8313728 C35.148525,31.820082 35.1678955,31.8080661 35.1869552,31.7955322 C36.6033817,30.8601562 37.5334748,29.1966786 37.6748689,27.3456079 C37.6770442,27.3182614 37.6779764,27.2906041 37.6779764,27.2631539 L37.6779764,26.364758 C38.3115046,26.1587266 38.8650649,25.7756679 39.2835498,25.2758684 C39.3666253,25.2215897 39.4442107,25.1560202 39.5122663,25.0770881 C39.8410463,24.694858 40.1469339,24.2970902 40.421746,23.894661 C41.764834,21.927989 42.4459079,19.7626402 42.4459079,17.4585906 C42.4459079,14.5906222 41.4392651,11.7983747 39.5993816,9.52633301 C39.7547597,8.99421491 39.8350384,8.43992955 39.8350384,7.87880755 C39.8350384,4.63762102 37.1981689,2.00085519 33.957086,2.00085519 C33.2513588,2.00085519 32.5534005,2.12826521 31.8974979,2.37365897 C30.6645211,0.890316336 28.8095142,0 26.8562047,0 C24.8758594,0 23.0543105,0.86804548 21.8204014,2.36236816 C21.1737179,2.1247433 20.4868433,2.0014767 19.7932356,2.0014767 C16.552049,2.0014767 13.9152832,4.63834612 13.9152832,7.87942906 C13.9152832,8.43464669 13.9936973,8.98302769 14.1457607,9.50986293 C12.2970724,11.7852194 11.2854576,14.583682 11.2854576,17.4591085 C11.2854576,19.7076364 11.9348343,21.8261646 13.2156676,23.755753 C13.4235634,24.0690988 13.6508297,24.38058 13.8910442,24.6818063 C13.9723587,24.7836307 14.0681752,24.8666026 14.173418,24.9308255 C14.6072335,25.6001943 15.261686,26.1139777 16.0342257,26.3652759 L16.0342257,27.2636719 C16.0342257,27.291122 16.0352616,27.3187793 16.0373333,27.3461258 C16.1794524,29.2046547 17.1030197,30.8681323 18.5078446,31.7960502 C18.5272151,31.8087912 18.5469999,31.8209106 18.567199,31.8325122 L21.4121715,33.4589062 L21.4121715,35.1389575 C21.4121715,35.4072437 21.252132,35.647251 21.0044594,35.7505256 L14.0395857,38.6525736 C12.2167937,39.4121652 10.943833,41.4157136 10.943833,43.5250227 L10.943833,50.8422939 L4.93929932,50.8422939 C4.34161168,50.8422939 3.85714286,51.3267627 3.85714286,51.9244503 C3.85714286,52.522138 4.34161168,53.0066068 4.93929932,53.0066068 L48.7725921,53.0066068 C49.3702797,53.0066068 49.8547485,52.522138 49.8547485,51.9244503 C49.8547485,51.3267627 49.3702797,50.8422939 48.7725921,50.8422939 L48.5001625,50.8422939 L48.5001625,42.6536625 L48.5775408,42.6536625 C49.1752284,42.6536625 49.6596973,42.1691936 49.6596973,41.571506 C49.6596973,40.9738184 49.1752284,40.4893495 48.5775408,40.4893495 L48.5001625,40.4893495 L48.5001625,40.0392711 C51.269932,39.5286987 53.3752012,37.0980678 53.3752012,34.1833824 L53.3752012,26.5054269 C53.3753048,25.9075321 52.890836,25.4229597 52.2931484,25.4229597 Z M19.7932356,4.16578962 C20.4413693,4.16578962 21.0802839,4.33618757 21.6407844,4.65864886 C22.1508388,4.95200265 22.8017693,4.78429792 23.1063103,4.28087298 C23.9080612,2.95560163 25.3099857,2.16452009 26.8562047,2.16452009 C28.4085352,2.16452009 29.8130493,2.96057373 30.6135571,4.29402832 C30.9186161,4.80232178 31.5758653,4.97054443 32.0874735,4.67138986 C32.6533604,4.34064174 33.2998368,4.16589321 33.9571896,4.16589321 C36.0048654,4.16589321 37.6707254,5.83185686 37.6707254,7.87942906 C37.6707254,8.27243199 37.6086778,8.66004848 37.4886223,9.0290196 C34.1054203,7.73347726 30.5401151,7.07726388 26.8752644,7.07726388 C23.2104136,7.07726388 19.6451085,7.73337367 16.2618028,9.0290196 C16.1416438,8.65994489 16.0796997,8.27243199 16.0796997,7.87942906 C16.0796997,5.83164969 17.7456634,4.16578962 19.7932356,4.16578962 Z M14.2080155,21.0779674 C13.7045905,19.9300342 13.4498741,18.7186032 13.4498741,17.4591085 C13.4498741,15.2816403 14.1193464,13.2254705 15.3925143,11.4436984 C15.6319001,11.5201444 15.8977002,11.5137221 16.1438191,11.4097224 C19.5421446,9.97102504 23.1527166,9.24168039 26.8752644,9.24168039 C30.5978122,9.24168039 34.2082806,9.97112863 37.6067097,11.4097224 C37.7438567,11.4677302 37.8869081,11.4953875 38.0281986,11.4953875 C38.1349951,11.4953875 38.2402379,11.477778 38.3413372,11.4470131 C39.6129513,13.2279565 40.2815949,15.2831941 40.2815949,17.4589014 C40.2815949,18.7249219 40.0243924,19.9418429 39.5158918,21.0946446 C39.0820762,20.4420567 38.4374644,19.9411178 37.6781836,19.6940667 L37.6781836,18.3179349 C37.6781836,17.7202473 37.1937148,17.2357785 36.5960271,17.2357785 L29.000422,17.2357785 L29.000422,14.9763742 C29.000422,14.4947021 28.6821041,14.0710379 28.2194918,13.9369985 C27.7569831,13.8028554 27.2613271,13.9907593 27.0037102,14.3975391 L25.207229,17.2357785 L17.1162786,17.2357785 C16.518591,17.2357785 16.0341221,17.7202473 16.0341221,18.3179349 L16.0341221,19.6941703 C15.2815744,19.9391497 14.6419346,20.4337699 14.2080155,21.0779674 Z M19.6741124,29.9720152 C18.8470867,29.4121362 18.2981878,28.3880912 18.1986422,27.2199588 L18.1986422,25.4538281 C18.1986422,24.8561405 17.7141734,24.3716717 17.1164858,24.3716717 C16.3765754,24.3716717 15.7746408,23.7696334 15.7746408,23.0298267 C15.7746408,22.2900199 16.376679,21.6879817 17.1164858,21.6879817 C17.7141734,21.6879817 18.1986422,21.2035128 18.1986422,20.6058252 L18.1986422,19.4005057 L25.8032593,19.4005057 C26.1741985,19.4005057 26.519345,19.2106337 26.717711,18.8970808 L26.8832404,18.6354241 C27.0188337,19.0783552 27.4308963,19.4005057 27.9182656,19.4005057 L35.5138707,19.4005057 L35.5138707,20.6058252 C35.5138707,21.2035128 35.9983395,21.6879817 36.5960271,21.6879817 C37.3359375,21.6879817 37.9378721,22.2900199 37.9378721,23.0298267 C37.9378721,23.7696334 37.3358339,24.3716717 36.5960271,24.3716717 C35.9983395,24.3716717 35.5138707,24.8561405 35.5138707,25.4538281 L35.5138707,27.2198553 C35.4155682,28.3641629 34.8465737,29.4129649 34.0204803,29.9724295 L28.2101692,33.3040461 C28.1903843,33.3154405 28.1711175,33.3273528 28.1520578,33.3398866 C27.3409842,33.8756302 26.3721502,33.8758374 25.5607659,33.3398866 C25.5413954,33.3271456 25.5217142,33.3150262 25.5014115,33.3034246 L19.6741124,29.9720152 Z M30.1359249,34.6946798 L30.1359249,36.9122356 C30.1359249,38.7123424 28.6670843,40.176936 26.8614875,40.176936 C25.0501936,40.176936 23.576588,38.7124459 23.576588,36.9122356 L23.576588,34.69613 L24.3988487,35.1662005 C25.1584403,35.6595776 26.0073225,35.9062144 26.8563082,35.9062144 C27.7055012,35.9062144 28.5545905,35.6593705 29.3142857,35.1657861 L30.1359249,34.6946798 Z M13.1083531,50.8421903 L13.1083531,43.5249191 C13.1083531,42.3052012 13.8665981,41.0693241 14.8722049,40.6503212 L15.3766657,40.4401465 C15.5996851,40.919436 15.7160114,41.4402633 15.7160114,41.9788037 L15.7160114,50.8421903 L13.1083531,50.8421903 L13.1083531,50.8421903 Z M32.7053603,50.8421903 L21.0451685,50.8421903 L21.0451685,48.3531372 L32.7053603,48.3531372 L32.7053603,50.8421903 Z M35.832085,41.9788037 L35.832085,50.8422939 L34.8697768,50.8422939 L34.8697768,47.2710843 C34.8697768,46.6733967 34.385308,46.1889279 33.7876203,46.1889279 L19.9629084,46.1889279 C19.3652208,46.1889279 18.880752,46.6733967 18.880752,47.2710843 L18.880752,50.8422939 L17.8805315,50.8422939 L17.8805315,41.9788037 C17.8805315,41.1498099 17.7079583,40.3478519 17.3762779,39.6071129 L21.5021872,37.8880099 C21.9650066,40.4173577 24.1913672,42.3413525 26.8616947,42.3413525 C29.5269465,42.3413525 31.7487493,40.4173577 32.2107401,37.8880099 L36.3365458,39.6070093 C36.0046582,40.3477483 35.832085,41.1498099 35.832085,41.9788037 Z M40.6042634,50.8421903 L40.6042634,50.8421903 L37.9963979,50.8421903 L37.9963979,41.9787001 C37.9963979,41.4401597 38.1127243,40.919436 38.3358472,40.4400429 L38.8404116,40.6502176 C39.8460184,41.0692205 40.6042634,42.3049941 40.6042634,43.5248155 L40.6042634,50.8421903 Z M51.2109919,34.1831752 L51.2108883,34.1831752 C51.2108883,35.8981348 50.0658555,37.3499874 48.5001625,37.8168467 L48.5001625,37.6495564 C48.5001625,37.0518687 48.0156937,36.5673999 47.4180061,36.5673999 C46.8203184,36.5673999 46.3358496,37.0518687 46.3358496,37.6495564 L46.3358496,37.8168467 C44.7701566,37.3499874 43.6251238,35.8981348 43.6251238,34.1831752 L43.6251238,27.5873762 L44.2849627,27.5873762 L44.2849627,31.9398267 C44.2849627,32.5375143 44.7694315,33.0219831 45.3671191,33.0219831 C45.9648068,33.0219831 46.4492756,32.5375143 46.4492756,31.9398267 L46.4492756,27.5873762 L47.1345965,27.5873762 L47.1345965,29.9557523 C47.1345965,30.5534399 47.6190653,31.0379088 48.2167529,31.0379088 C48.8144406,31.0379088 49.2989094,30.5534399 49.2989094,29.9557523 L49.2989094,27.5873762 L51.2107847,27.5873762 L51.2107847,34.1831752 L51.2109919,34.1831752 Z" id="Shape" fill="#FFFFFF"></path>
                <path d="M52.2931484,25.4229597 L42.5428638,25.4229597 C41.9451761,25.4229597 41.4607073,25.9074285 41.4607073,26.5051161 L41.4607073,34.1830716 C41.4607073,37.097757 43.5660801,39.5284916 46.335746,40.0389603 L46.335746,40.4890388 L46.2583677,40.4890388 C45.6606801,40.4890388 45.1762113,40.9735076 45.1762113,41.5711952 C45.1762113,42.1688829 45.6606801,42.6533517 46.2583677,42.6533517 L46.335746,42.6533517 L46.335746,50.8419831 L48.5001625,50.8422939 L48.5001625,42.6536625 L48.5775408,42.6536625 C49.1752284,42.6536625 49.6596973,42.1691936 49.6596973,41.571506 C49.6596973,40.9738184 49.1752284,40.4893495 48.5775408,40.4893495 L48.5001625,40.4893495 L48.5001625,40.0392711 C51.269932,39.5286987 53.3752012,37.0980678 53.3752012,34.1833824 L53.3752012,26.5054269 C53.3753048,25.9075321 52.890836,25.4229597 52.2931484,25.4229597 Z M48.5001625,37.8168467 L48.5001625,37.6495564 C48.5001625,37.0518687 48.0156937,36.5673999 47.4180061,36.5673999 C46.8203184,36.5673999 46.3358496,37.0518687 46.3358496,37.6495564 L46.3358496,37.8168467 C44.7701566,37.3499874 43.6251238,35.8981348 43.6251238,34.1831752 L43.6251238,27.5873762 L44.2849627,27.5873762 L44.2849627,31.9398267 C44.2849627,32.5375143 44.7694315,33.0219831 45.3671191,33.0219831 C45.9648068,33.0219831 46.4492756,32.5375143 46.4492756,31.9398267 L46.4492756,27.5873762 L47.1345965,27.5873762 L47.1345965,29.9557523 C47.1345965,30.5534399 47.6190653,31.0379088 48.2167529,31.0379088 C48.8144406,31.0379088 49.2989094,30.5534399 49.2989094,29.9557523 L49.2989094,27.5873762 L51.2107847,27.5873762 L51.2107847,34.1831752 C51.2108883,35.8981348 50.0658555,37.3499874 48.5001625,37.8168467 Z" id="Shape" fill="#21AFB0"></path>
            </g>
        </g>
    </g>
</svg>