<svg xmlns="http://www.w3.org/2000/svg" viewBox="0 0 20.499 25.493">
  <defs>
    <style>
      .cls-1 {
        fill: #3f4047;
      }
    </style>
  </defs>
  <g id="Symbol_16_2" data-name="Symbol 16 – 2" transform="translate(-253.869 -3960.122)">
    <path id="Path_378" data-name="Path 378" class="cls-1" d="M75.786,14.942H58.742c-.954,0-1.728.512-1.728,1.143V39.291c0,.632.774,1.143,1.728,1.143h6.132V33H69.8v7.43h5.988c.954,0,1.727-.511,1.727-1.143V16.085C77.514,15.454,76.74,14.942,75.786,14.942ZM63.134,36.51H59.485V33.081h3.649Zm0-5.02H59.485V28.06h3.649Zm0-5.544H59.485V22.516h3.649Zm0-5.288H59.485V17.228h3.649Zm6.088,10.832H65.573V28.06h3.649Zm0-5.544H65.573V22.516h3.649Zm0-5.288H65.573V17.228h3.649ZM75.1,36.586H71.456V33.157H75.1Zm0-5.1H71.456V28.06H75.1Zm0-5.544H71.456V22.516H75.1Zm0-5.288H71.456V17.228H75.1Z" transform="translate(196.854 3945.18)"/>
  </g>
</svg>
