<svg xmlns="http://www.w3.org/2000/svg" viewBox="0 0 80 64">
  <defs>
    <style>
      .cls-1 {
        fill: #626262;
      }
    </style>
  </defs>
  <g id="resort" transform="translate(-920.333 -1385)">
    <g id="Group_26" data-name="Group 26" transform="translate(952.333 1437)">
      <g id="Group_25" data-name="Group 25" transform="translate(0 0)">
        <path id="Path_48" data-name="Path 48" class="cls-1" d="M219.468,384H206.134a1.333,1.333,0,0,0-1.333,1.333v9.333A1.333,1.333,0,0,0,206.134,396h13.333a1.332,1.332,0,0,0,1.333-1.333v-9.333A1.332,1.332,0,0,0,219.468,384Zm-1.333,9.333H207.467v-6.667h10.667Z" transform="translate(-204.801 -384)"/>
      </g>
    </g>
    <g id="Group_28" data-name="Group 28" transform="translate(959 1438.333)">
      <g id="Group_27" data-name="Group 27" transform="translate(0 0)">
        <rect id="Rectangle_16" data-name="Rectangle 16" class="cls-1" width="2.667" height="9.333"/>
      </g>
    </g>
    <g id="Group_30" data-name="Group 30" transform="translate(945.666 1385)">
      <g id="Group_29" data-name="Group 29" transform="translate(0 0)">
        <path id="Path_49" data-name="Path 49" class="cls-1" d="M190.134,51.2H163.467a1.334,1.334,0,0,0-1.333,1.333v61.333a1.333,1.333,0,0,0,1.333,1.333h26.667a1.332,1.332,0,0,0,1.333-1.333V52.533A1.333,1.333,0,0,0,190.134,51.2ZM188.8,112.533h-24V53.867h24Z" transform="translate(-162.134 -51.2)"/>
      </g>
    </g>
    <g id="Group_32" data-name="Group 32" transform="translate(935 1390.333)">
      <g id="Group_31" data-name="Group 31" transform="translate(0 0)">
        <path id="Path_50" data-name="Path 50" class="cls-1" d="M105.867,85.333H95.2a1.334,1.334,0,0,0-1.333,1.333v56A1.333,1.333,0,0,0,95.2,144h10.667a1.333,1.333,0,0,0,1.333-1.333v-56A1.334,1.334,0,0,0,105.867,85.333Zm-1.333,56h-8V88h8Z" transform="translate(-93.867 -85.333)"/>
      </g>
    </g>
    <g id="Group_34" data-name="Group 34" transform="translate(932.333 1390.333)">
      <g id="Group_33" data-name="Group 33" transform="translate(0 0)">
        <rect id="Rectangle_17" data-name="Rectangle 17" class="cls-1" width="4" height="2.667"/>
      </g>
    </g>
    <g id="Group_36" data-name="Group 36" transform="translate(943 1385)">
      <g id="Group_35" data-name="Group 35" transform="translate(0 0)">
        <rect id="Rectangle_18" data-name="Rectangle 18" class="cls-1" width="34.667" height="2.667"/>
      </g>
    </g>
    <g id="Group_38" data-name="Group 38" transform="translate(951 1430.333)">
      <g id="Group_37" data-name="Group 37">
        <rect id="Rectangle_19" data-name="Rectangle 19" class="cls-1" width="2.667" height="4"/>
      </g>
    </g>
    <g id="Group_40" data-name="Group 40" transform="translate(956.333 1430.333)">
      <g id="Group_39" data-name="Group 39">
        <rect id="Rectangle_20" data-name="Rectangle 20" class="cls-1" width="2.667" height="4"/>
      </g>
    </g>
    <g id="Group_42" data-name="Group 42" transform="translate(961.666 1430.333)">
      <g id="Group_41" data-name="Group 41">
        <rect id="Rectangle_21" data-name="Rectangle 21" class="cls-1" width="2.667" height="4"/>
      </g>
    </g>
    <g id="Group_44" data-name="Group 44" transform="translate(967 1430.333)">
      <g id="Group_43" data-name="Group 43">
        <rect id="Rectangle_22" data-name="Rectangle 22" class="cls-1" width="2.667" height="4"/>
      </g>
    </g>
    <g id="Group_46" data-name="Group 46" transform="translate(951 1423.667)">
      <g id="Group_45" data-name="Group 45">
        <rect id="Rectangle_23" data-name="Rectangle 23" class="cls-1" width="2.667" height="4"/>
      </g>
    </g>
    <g id="Group_48" data-name="Group 48" transform="translate(956.333 1423.667)">
      <g id="Group_47" data-name="Group 47">
        <rect id="Rectangle_24" data-name="Rectangle 24" class="cls-1" width="2.667" height="4"/>
      </g>
    </g>
    <g id="Group_50" data-name="Group 50" transform="translate(961.666 1423.667)">
      <g id="Group_49" data-name="Group 49">
        <rect id="Rectangle_25" data-name="Rectangle 25" class="cls-1" width="2.667" height="4"/>
      </g>
    </g>
    <g id="Group_52" data-name="Group 52" transform="translate(967 1423.667)">
      <g id="Group_51" data-name="Group 51">
        <rect id="Rectangle_26" data-name="Rectangle 26" class="cls-1" width="2.667" height="4"/>
      </g>
    </g>
    <g id="Group_54" data-name="Group 54" transform="translate(951 1417)">
      <g id="Group_53" data-name="Group 53">
        <rect id="Rectangle_27" data-name="Rectangle 27" class="cls-1" width="2.667" height="4"/>
      </g>
    </g>
    <g id="Group_56" data-name="Group 56" transform="translate(956.333 1417)">
      <g id="Group_55" data-name="Group 55">
        <rect id="Rectangle_28" data-name="Rectangle 28" class="cls-1" width="2.667" height="4"/>
      </g>
    </g>
    <g id="Group_58" data-name="Group 58" transform="translate(961.666 1417)">
      <g id="Group_57" data-name="Group 57">
        <rect id="Rectangle_29" data-name="Rectangle 29" class="cls-1" width="2.667" height="4"/>
      </g>
    </g>
    <g id="Group_60" data-name="Group 60" transform="translate(967 1417)">
      <g id="Group_59" data-name="Group 59">
        <rect id="Rectangle_30" data-name="Rectangle 30" class="cls-1" width="2.667" height="4"/>
      </g>
    </g>
    <g id="Group_62" data-name="Group 62" transform="translate(951 1410.333)">
      <g id="Group_61" data-name="Group 61">
        <rect id="Rectangle_31" data-name="Rectangle 31" class="cls-1" width="2.667" height="4"/>
      </g>
    </g>
    <g id="Group_64" data-name="Group 64" transform="translate(956.333 1410.333)">
      <g id="Group_63" data-name="Group 63">
        <rect id="Rectangle_32" data-name="Rectangle 32" class="cls-1" width="2.667" height="4"/>
      </g>
    </g>
    <g id="Group_66" data-name="Group 66" transform="translate(961.666 1410.333)">
      <g id="Group_65" data-name="Group 65">
        <rect id="Rectangle_33" data-name="Rectangle 33" class="cls-1" width="2.667" height="4"/>
      </g>
    </g>
    <g id="Group_68" data-name="Group 68" transform="translate(967 1410.333)">
      <g id="Group_67" data-name="Group 67">
        <rect id="Rectangle_34" data-name="Rectangle 34" class="cls-1" width="2.667" height="4"/>
      </g>
    </g>
    <g id="Group_70" data-name="Group 70" transform="translate(951 1403.667)">
      <g id="Group_69" data-name="Group 69" transform="translate(0 0)">
        <rect id="Rectangle_35" data-name="Rectangle 35" class="cls-1" width="2.667" height="4"/>
      </g>
    </g>
    <g id="Group_72" data-name="Group 72" transform="translate(956.333 1403.667)">
      <g id="Group_71" data-name="Group 71" transform="translate(0 0)">
        <rect id="Rectangle_36" data-name="Rectangle 36" class="cls-1" width="2.667" height="4"/>
      </g>
    </g>
    <g id="Group_74" data-name="Group 74" transform="translate(961.666 1403.667)">
      <g id="Group_73" data-name="Group 73" transform="translate(0 0)">
        <rect id="Rectangle_37" data-name="Rectangle 37" class="cls-1" width="2.667" height="4"/>
      </g>
    </g>
    <g id="Group_76" data-name="Group 76" transform="translate(967 1403.667)">
      <g id="Group_75" data-name="Group 75" transform="translate(0 0)">
        <rect id="Rectangle_38" data-name="Rectangle 38" class="cls-1" width="2.667" height="4"/>
      </g>
    </g>
    <g id="Group_78" data-name="Group 78" transform="translate(951 1397)">
      <g id="Group_77" data-name="Group 77" transform="translate(0 0)">
        <rect id="Rectangle_39" data-name="Rectangle 39" class="cls-1" width="2.667" height="4"/>
      </g>
    </g>
    <g id="Group_80" data-name="Group 80" transform="translate(956.333 1397)">
      <g id="Group_79" data-name="Group 79" transform="translate(0 0)">
        <rect id="Rectangle_40" data-name="Rectangle 40" class="cls-1" width="2.667" height="4"/>
      </g>
    </g>
    <g id="Group_82" data-name="Group 82" transform="translate(961.666 1397)">
      <g id="Group_81" data-name="Group 81" transform="translate(0 0)">
        <rect id="Rectangle_41" data-name="Rectangle 41" class="cls-1" width="2.667" height="4"/>
      </g>
    </g>
    <g id="Group_84" data-name="Group 84" transform="translate(967 1397)">
      <g id="Group_83" data-name="Group 83" transform="translate(0 0)">
        <rect id="Rectangle_42" data-name="Rectangle 42" class="cls-1" width="2.667" height="4"/>
      </g>
    </g>
    <g id="Group_86" data-name="Group 86" transform="translate(951 1390.333)">
      <g id="Group_85" data-name="Group 85" transform="translate(0 0)">
        <rect id="Rectangle_43" data-name="Rectangle 43" class="cls-1" width="2.667" height="4"/>
      </g>
    </g>
    <g id="Group_88" data-name="Group 88" transform="translate(956.333 1390.333)">
      <g id="Group_87" data-name="Group 87" transform="translate(0 0)">
        <rect id="Rectangle_44" data-name="Rectangle 44" class="cls-1" width="2.667" height="4"/>
      </g>
    </g>
    <g id="Group_90" data-name="Group 90" transform="translate(961.666 1390.333)">
      <g id="Group_89" data-name="Group 89" transform="translate(0 0)">
        <rect id="Rectangle_45" data-name="Rectangle 45" class="cls-1" width="2.667" height="4"/>
      </g>
    </g>
    <g id="Group_92" data-name="Group 92" transform="translate(967 1390.333)">
      <g id="Group_91" data-name="Group 91" transform="translate(0 0)">
        <rect id="Rectangle_46" data-name="Rectangle 46" class="cls-1" width="2.667" height="4"/>
      </g>
    </g>
    <g id="Group_94" data-name="Group 94" transform="translate(940.333 1437)">
      <g id="Group_93" data-name="Group 93" transform="translate(0 0)">
        <rect id="Rectangle_47" data-name="Rectangle 47" class="cls-1" width="2.667" height="4"/>
      </g>
    </g>
    <g id="Group_96" data-name="Group 96" transform="translate(940.333 1430.333)">
      <g id="Group_95" data-name="Group 95">
        <rect id="Rectangle_48" data-name="Rectangle 48" class="cls-1" width="2.667" height="4"/>
      </g>
    </g>
    <g id="Group_98" data-name="Group 98" transform="translate(940.333 1423.667)">
      <g id="Group_97" data-name="Group 97">
        <rect id="Rectangle_49" data-name="Rectangle 49" class="cls-1" width="2.667" height="4"/>
      </g>
    </g>
    <g id="Group_100" data-name="Group 100" transform="translate(940.333 1417)">
      <g id="Group_99" data-name="Group 99">
        <rect id="Rectangle_50" data-name="Rectangle 50" class="cls-1" width="2.667" height="4"/>
      </g>
    </g>
    <g id="Group_102" data-name="Group 102" transform="translate(940.333 1410.333)">
      <g id="Group_101" data-name="Group 101">
        <rect id="Rectangle_51" data-name="Rectangle 51" class="cls-1" width="2.667" height="4"/>
      </g>
    </g>
    <g id="Group_104" data-name="Group 104" transform="translate(940.333 1403.667)">
      <g id="Group_103" data-name="Group 103" transform="translate(0 0)">
        <rect id="Rectangle_52" data-name="Rectangle 52" class="cls-1" width="2.667" height="4"/>
      </g>
    </g>
    <g id="Group_106" data-name="Group 106" transform="translate(940.333 1397)">
      <g id="Group_105" data-name="Group 105" transform="translate(0 0)">
        <rect id="Rectangle_53" data-name="Rectangle 53" class="cls-1" width="2.667" height="4"/>
      </g>
    </g>
    <g id="Group_108" data-name="Group 108" transform="translate(972.333 1390.333)">
      <g id="Group_107" data-name="Group 107" transform="translate(0 0)">
        <path id="Path_51" data-name="Path 51" class="cls-1" d="M344.8,85.333H334.133a1.333,1.333,0,0,0-1.333,1.333v56A1.332,1.332,0,0,0,334.133,144H344.8a1.332,1.332,0,0,0,1.333-1.333v-56A1.333,1.333,0,0,0,344.8,85.333Zm-1.333,56h-8V88h8Z" transform="translate(-332.8 -85.333)"/>
      </g>
    </g>
    <g id="Group_110" data-name="Group 110" transform="translate(984.333 1390.333)">
      <g id="Group_109" data-name="Group 109" transform="translate(0 0)">
        <rect id="Rectangle_54" data-name="Rectangle 54" class="cls-1" width="4" height="2.667"/>
      </g>
    </g>
    <g id="Group_112" data-name="Group 112" transform="translate(977.666 1437)">
      <g id="Group_111" data-name="Group 111" transform="translate(0 0)">
        <rect id="Rectangle_55" data-name="Rectangle 55" class="cls-1" width="2.667" height="4"/>
      </g>
    </g>
    <g id="Group_114" data-name="Group 114" transform="translate(977.666 1430.333)">
      <g id="Group_113" data-name="Group 113">
        <rect id="Rectangle_56" data-name="Rectangle 56" class="cls-1" width="2.667" height="4"/>
      </g>
    </g>
    <g id="Group_116" data-name="Group 116" transform="translate(977.666 1423.667)">
      <g id="Group_115" data-name="Group 115">
        <rect id="Rectangle_57" data-name="Rectangle 57" class="cls-1" width="2.667" height="4"/>
      </g>
    </g>
    <g id="Group_118" data-name="Group 118" transform="translate(977.666 1417)">
      <g id="Group_117" data-name="Group 117">
        <rect id="Rectangle_58" data-name="Rectangle 58" class="cls-1" width="2.667" height="4"/>
      </g>
    </g>
    <g id="Group_120" data-name="Group 120" transform="translate(977.666 1410.333)">
      <g id="Group_119" data-name="Group 119">
        <rect id="Rectangle_59" data-name="Rectangle 59" class="cls-1" width="2.667" height="4"/>
      </g>
    </g>
    <g id="Group_122" data-name="Group 122" transform="translate(977.666 1403.667)">
      <g id="Group_121" data-name="Group 121" transform="translate(0 0)">
        <rect id="Rectangle_60" data-name="Rectangle 60" class="cls-1" width="2.667" height="4"/>
      </g>
    </g>
    <g id="Group_124" data-name="Group 124" transform="translate(977.666 1397)">
      <g id="Group_123" data-name="Group 123" transform="translate(0 0)">
        <rect id="Rectangle_61" data-name="Rectangle 61" class="cls-1" width="2.667" height="4"/>
      </g>
    </g>
    <g id="Group_126" data-name="Group 126" transform="translate(920.333 1446.333)">
      <g id="Group_125" data-name="Group 125">
        <rect id="Rectangle_62" data-name="Rectangle 62" class="cls-1" width="16" height="2.667"/>
      </g>
    </g>
    <g id="Group_128" data-name="Group 128" transform="translate(984.333 1446.333)">
      <g id="Group_127" data-name="Group 127">
        <rect id="Rectangle_63" data-name="Rectangle 63" class="cls-1" width="16" height="2.667"/>
      </g>
    </g>
    <g id="Group_130" data-name="Group 130" transform="translate(925.666 1419.667)">
      <g id="Group_129" data-name="Group 129">
        <rect id="Rectangle_64" data-name="Rectangle 64" class="cls-1" width="2.667" height="28"/>
      </g>
    </g>
    <g id="Group_132" data-name="Group 132" transform="translate(920.866 1421.267)">
      <g id="Group_131" data-name="Group 131" transform="translate(0 0)">
        <rect id="Rectangle_65" data-name="Rectangle 65" class="cls-1" width="2.667" height="13.333" transform="matrix(0.6, -0.8, 0.8, 0.6, 0, 2.133)"/>
      </g>
    </g>
    <g id="Group_134" data-name="Group 134" transform="translate(920.864 1421.267)">
      <g id="Group_133" data-name="Group 133">
        <rect id="Rectangle_66" data-name="Rectangle 66" class="cls-1" width="13.334" height="2.667" transform="translate(0 8.003) rotate(-36.883)"/>
      </g>
    </g>
    <g id="Group_136" data-name="Group 136" transform="translate(992.333 1419.667)">
      <g id="Group_135" data-name="Group 135">
        <rect id="Rectangle_67" data-name="Rectangle 67" class="cls-1" width="2.667" height="28"/>
      </g>
    </g>
    <g id="Group_138" data-name="Group 138" transform="translate(987.533 1421.268)">
      <g id="Group_137" data-name="Group 137" transform="translate(0 0)">
        <rect id="Rectangle_68" data-name="Rectangle 68" class="cls-1" width="2.665" height="13.333" transform="matrix(0.6, -0.8, 0.8, 0.6, 0, 2.132)"/>
      </g>
    </g>
    <g id="Group_140" data-name="Group 140" transform="translate(987.525 1421.275)">
      <g id="Group_139" data-name="Group 139" transform="translate(0 0)">
        <rect id="Rectangle_69" data-name="Rectangle 69" class="cls-1" width="13.333" height="2.665" transform="translate(0 7.997) rotate(-36.857)"/>
      </g>
    </g>
  </g>
</svg>
