<?xml version="1.0" encoding="UTF-8"?>
<svg width="50px" height="50px" viewBox="0 0 50 50" version="1.1" xmlns="http://www.w3.org/2000/svg" xmlns:xlink="http://www.w3.org/1999/xlink">
    <!-- Generator: Sketch 46.2 (44496) - http://www.bohemiancoding.com/sketch -->
    <title>15</title>
    <desc>Created with Sketch.</desc>
    <defs>
        <rect id="path-1" x="0" y="0" width="44" height="44" rx="22"></rect>
        <filter x="-80.7%" y="-73.9%" width="261.4%" height="261.4%" filterUnits="objectBoundingBox" id="filter-2">
            <feOffset dx="0" dy="2" in="SourceAlpha" result="shadowOffsetOuter1"></feOffset>
            <feGaussianBlur stdDeviation="9.5" in="shadowOffsetOuter1" result="shadowBlurOuter1"></feGaussianBlur>
            <feColorMatrix values="0 0 0 0 0   0 0 0 0 0   0 0 0 0 0  0 0 0 0.21373981 0" type="matrix" in="shadowBlurOuter1" result="shadowMatrixOuter1"></feColorMatrix>
            <feOffset dx="0" dy="1" in="SourceAlpha" result="shadowOffsetOuter2"></feOffset>
            <feGaussianBlur stdDeviation="3" in="shadowOffsetOuter2" result="shadowBlurOuter2"></feGaussianBlur>
            <feColorMatrix values="0 0 0 0 0   0 0 0 0 0   0 0 0 0 0  0 0 0 0.09 0" type="matrix" in="shadowBlurOuter2" result="shadowMatrixOuter2"></feColorMatrix>
            <feMerge>
                <feMergeNode in="shadowMatrixOuter1"></feMergeNode>
                <feMergeNode in="shadowMatrixOuter2"></feMergeNode>
            </feMerge>
        </filter>
        <path d="M20.5323003,18.3602875 C22.0990455,16.4436402 23.0388889,13.9945392 23.0388889,11.3259259 L23.0388889,11.3259259 L23.0388889,11.1222222 C23.0388889,4.9795885 18.0593004,-1.12838351e-15 11.9166667,0 L11.9166667,0 L11.9166667,0 C5.77403295,1.12838351e-15 0.794444444,4.9795885 0.794444444,11.1222222 L0.794444444,11.1222222 L0.794444444,11.3259259 C0.794444444,16.360774 4.13991306,20.614246 8.72917583,21.9846675 L8.70833333,21.991868 L19.0521904,26.108736 L20.5323003,18.3602875 Z" id="path-3"></path>
        <filter x="-36.0%" y="-26.8%" width="171.9%" height="161.3%" filterUnits="objectBoundingBox" id="filter-4">
            <feOffset dx="0" dy="1" in="SourceAlpha" result="shadowOffsetOuter1"></feOffset>
            <feGaussianBlur stdDeviation="2.5" in="shadowOffsetOuter1" result="shadowBlurOuter1"></feGaussianBlur>
            <feColorMatrix values="0 0 0 0 0   0 0 0 0 0   0 0 0 0 0  0 0 0 0.151466259 0" type="matrix" in="shadowBlurOuter1"></feColorMatrix>
        </filter>
    </defs>
    <g id="Page-1" stroke="none" stroke-width="1" fill="none" fill-rule="evenodd">
        <g id="Artboard" transform="translate(-246.000000, -224.000000)">
            <g id="Intercom-bubble-chat" transform="translate(249.000000, 227.000000)">
                <g id="Background">
                    <use fill="black" fill-opacity="1" filter="url(#filter-2)" xlink:href="#path-1"></use>
                    <use fill="#21AFB0" fill-rule="evenodd" xlink:href="#path-1"></use>
                </g>
                <g id="Group-12" transform="translate(10.083333, 10.083333)">
                    <g id="Icon">
                        <use fill="black" fill-opacity="1" filter="url(#filter-4)" xlink:href="#path-3"></use>
                        <use fill="#FFFFFF" fill-rule="evenodd" xlink:href="#path-3"></use>
                    </g>
                    <path d="M8.15350877,8.76265432 L15.6798246,8.76265432 C15.9540493,8.76265432 16.1763523,8.54225129 16.1763523,8.27037037 C16.1763523,7.99848945 15.9540493,7.77808642 15.6798246,7.77808642 L8.15350877,7.77808642 C7.87928405,7.77808642 7.65698099,7.99848945 7.65698099,8.27037037 C7.65698099,8.54225129 7.87928405,8.76265432 8.15350877,8.76265432 Z" id="Line" fill="#21AFB0" fill-rule="nonzero"></path>
                    <path d="M8.15350877,11.9132716 L15.6798246,11.9132716 C15.9540493,11.9132716 16.1763523,11.6928686 16.1763523,11.4209877 C16.1763523,11.1491067 15.9540493,10.9287037 15.6798246,10.9287037 L8.15350877,10.9287037 C7.87928405,10.9287037 7.65698099,11.1491067 7.65698099,11.4209877 C7.65698099,11.6928686 7.87928405,11.9132716 8.15350877,11.9132716 Z" id="Line" fill="#21AFB0" fill-rule="nonzero"></path>
                    <path d="M8.15350877,15.0638889 L15.6798246,15.0638889 C15.9540493,15.0638889 16.1763523,14.8434859 16.1763523,14.5716049 C16.1763523,14.299724 15.9540493,14.079321 15.6798246,14.079321 L8.15350877,14.079321 C7.87928405,14.079321 7.65698099,14.299724 7.65698099,14.5716049 C7.65698099,14.8434859 7.87928405,15.0638889 8.15350877,15.0638889 Z" id="Line" fill="#21AFB0" fill-rule="nonzero"></path>
                </g>
            </g>
            <text id="15" font-family="Lato-Bold, Lato" font-size="18" font-weight="bold" line-spacing="31" letter-spacing="1.60714293" fill="#2E2E2E">
                <tspan x="259.452857" y="286">15</tspan>
            </text>
        </g>
    </g>
</svg>