<?xml version="1.0" encoding="UTF-8"?>
<svg width="50px" height="50px" viewBox="0 0 50 50" version="1.1" xmlns="http://www.w3.org/2000/svg" xmlns:xlink="http://www.w3.org/1999/xlink">
    <!-- Generator: Sketch 46.2 (44496) - http://www.bohemiancoding.com/sketch -->
    <title>1</title>
    <desc>Created with Sketch.</desc>
    <defs></defs>
    <g id="Page-1" stroke="none" stroke-width="1" fill="none" fill-rule="evenodd">
        <g id="Artboard" transform="translate(-45.000000, -36.000000)" fill-rule="nonzero" fill="#FFFFFF">
            <path d="M91.7578503,59.0772381 L85.1721946,53.0002399 L85.1721946,43.0445472 L77.5859076,43.0445472 L77.5859076,46.0004969 L69.9996207,39 L48.2421497,59.0772381 C47.9356637,59.3606956 47.9174566,59.8378994 48.202701,60.1432194 C48.4871868,60.4477855 48.9673987,60.4651246 49.275402,60.182421 L51.7932906,57.8589737 L51.7932906,83 L63.9313497,83 L76.0694089,83 L88.207468,83 L88.207468,57.8582198 L90.7253567,60.1816671 C90.8710134,60.316611 91.0568774,60.3829521 91.2419828,60.3829521 C91.4460539,60.3829521 91.6486078,60.3022873 91.797299,60.1424655 C92.0825434,59.8378994 92.0643363,59.3606956 91.7578503,59.0772381 Z M79.103165,44.5523002 L83.6549372,44.5523002 L83.6549372,51.6002913 L79.103165,47.4004455 L79.103165,44.5523002 Z M65.4478485,81.4922471 L65.4478485,65.613347 C65.4478485,65.2235929 65.7664726,64.9069648 66.1586836,64.9069648 L73.8405578,64.9069648 C74.2327688,64.9069648 74.5513929,65.2235929 74.5513929,65.613347 L74.5513929,81.4922471 L65.4478485,81.4922471 L65.4478485,81.4922471 Z M86.689452,81.4922471 L76.0686503,81.4922471 L76.0686503,65.613347 C76.0686503,64.3920672 75.0695363,63.3992119 73.8405578,63.3992119 L66.1586836,63.3992119 C64.9297051,63.3992119 63.9305911,64.3920672 63.9305911,65.613347 L63.9305911,81.4922471 L53.3097894,81.4922471 L53.3097894,56.4582712 L69.9996207,41.0573289 L80.8328385,51.0537308 L85.1721946,55.0575687 L85.1721946,55.0575687 L86.689452,56.4575173 L86.689452,81.4922471 Z" id="Shape"></path>
        </g>
    </g>
</svg>