<?xml version="1.0" encoding="UTF-8"?>
<svg width="50px" height="50px" viewBox="0 0 50 50" version="1.1" xmlns="http://www.w3.org/2000/svg" xmlns:xlink="http://www.w3.org/1999/xlink">
    <!-- Generator: Sketch 46.2 (44496) - http://www.bohemiancoding.com/sketch -->
    <title>2</title>
    <desc>Created with Sketch.</desc>
    <defs></defs>
    <g id="Page-1" stroke="none" stroke-width="1" fill="none" fill-rule="evenodd">
        <g id="Artboard" transform="translate(-151.000000, -36.000000)" fill-rule="nonzero" fill="#FFFFFF">
            <g id="blueprint" transform="translate(154.000000, 39.000000)">
                <path d="M10.440678,5.22033898 C10.440678,2.34244068 8.09823729,0 5.22033898,0 C2.34244068,0 0,2.34244068 0,5.22033898 L0,38.779661 L0.00223728814,38.779661 C0.00223728814,38.7945763 0,38.8094915 0,38.8244068 C0,41.6784407 2.32155932,44 5.17559322,44 L44,44 L44,5.22033898 L10.440678,5.22033898 Z M1.49152542,5.22033898 C1.49152542,3.41484746 2.78244068,1.90616949 4.48949153,1.56535593 C4.52827119,1.94122034 4.83477966,2.23728814 5.22033898,2.23728814 C5.60589831,2.23728814 5.91240678,1.94122034 5.95118644,1.56535593 C7.65823729,1.90616949 8.94915254,3.41484746 8.94915254,5.22033898 L8.94915254,35.1291525 C8.00128814,34.1611525 6.67979661,33.559322 5.22033898,33.559322 C5.03911864,33.559322 4.86088136,33.5690169 4.68413559,33.5869153 C4.60508475,33.5951186 4.52752542,33.6107797 4.44922034,33.6227119 C4.35376271,33.6368814 4.25755932,33.6480678 4.16359322,33.6674576 C4.06067797,33.688339 3.96149153,33.7181695 3.86155932,33.7450169 C3.7959322,33.7629153 3.72881356,33.776339 3.6639322,33.7964746 C3.53938983,33.836 3.41857627,33.8829831 3.29776271,33.9314576 C3.26122034,33.9463729 3.22244068,33.9575593 3.18589831,33.9732203 C3.03749153,34.0358644 2.89355932,34.1074576 2.75186441,34.1835254 C2.74589831,34.1865085 2.73918644,34.1894915 2.73322034,34.1924746 C2.27383051,34.4423051 1.85471186,34.7585085 1.49152542,35.1291525 L1.49152542,5.22033898 Z M42.5084746,42.5084746 L5.17559322,42.5084746 C3.14413559,42.5084746 1.49152542,40.8558644 1.49152542,38.779661 C1.49152542,36.7235932 3.16427119,35.0508475 5.22033898,35.0508475 C7.27640678,35.0508475 8.94915254,36.7235932 8.94915254,38.779661 L10.440678,38.779661 L10.440678,6.71186441 L42.5084746,6.71186441 L42.5084746,42.5084746 Z" id="Shape"></path>
                <path d="M34.3177627,15.6617627 C34.4490169,15.7534915 34.5989153,15.7982373 34.747322,15.7982373 C34.9814915,15.7982373 35.2119322,15.6886102 35.3573559,15.4827797 C35.5945085,15.1464407 35.5147119,14.6810847 35.1783729,14.4424407 L33.9597966,13.5825763 C33.6219661,13.3461695 33.1581017,13.4259661 32.9194576,13.7615593 C32.6823051,14.0978983 32.7621017,14.5632542 33.0984407,14.8018983 L34.3177627,15.6617627 Z" id="Shape"></path>
                <path d="M37.9742373,18.2421017 C38.1047458,18.3338305 38.2546441,18.3785763 38.4030508,18.3785763 C38.6372203,18.3785763 38.867661,18.2689492 39.0130847,18.0623729 C39.2502373,17.7260339 39.1696949,17.260678 38.8333559,17.0227797 L37.6140339,16.1629153 C37.2776949,15.9265085 36.8130847,16.0063051 36.5744407,16.3426441 C36.3372881,16.6789831 36.4178305,17.144339 36.7541695,17.3822373 L37.9742373,18.2421017 Z" id="Shape"></path>
                <path d="M27.5932203,30.5762712 C27.5932203,30.988678 27.9265763,31.3220339 28.3389831,31.3220339 L29.8305085,31.3220339 C30.2429153,31.3220339 30.5762712,30.988678 30.5762712,30.5762712 C30.5762712,30.1638644 30.2429153,29.8305085 29.8305085,29.8305085 L28.3389831,29.8305085 C27.9265763,29.8305085 27.5932203,30.1638644 27.5932203,30.5762712 Z" id="Shape"></path>
                <path d="M38.0338983,20.4212203 L38.0338983,21.9127458 C38.0338983,22.3251525 38.3672542,22.6585085 38.779661,22.6585085 C39.1920678,22.6585085 39.5254237,22.3251525 39.5254237,21.9127458 L39.5254237,20.4212203 C39.5254237,20.0088136 39.1920678,19.6754576 38.779661,19.6754576 C38.3672542,19.6754576 38.0338983,20.0088136 38.0338983,20.4212203 Z" id="Shape"></path>
                <path d="M30.6620339,13.0814237 C30.7932881,13.1731525 30.9431864,13.2178983 31.0915932,13.2178983 C31.3257627,13.2178983 31.5562034,13.1082712 31.7016271,12.9024407 C31.9387797,12.5661017 31.8589831,12.1007458 31.5226441,11.8621017 L30.3040678,11.0022373 C29.9662373,10.7658305 29.5023729,10.8456271 29.2637288,11.1812203 C29.0265763,11.5175593 29.1063729,11.9829153 29.4427119,12.2215593 L30.6620339,13.0814237 Z" id="Shape"></path>
                <path d="M32.0677966,30.5762712 C32.0677966,30.988678 32.4011525,31.3220339 32.8135593,31.3220339 L34.3050847,31.3220339 C34.7174915,31.3220339 35.0508475,30.988678 35.0508475,30.5762712 C35.0508475,30.1638644 34.7174915,29.8305085 34.3050847,29.8305085 L32.8135593,29.8305085 C32.4011525,29.8305085 32.0677966,30.1638644 32.0677966,30.5762712 Z" id="Shape"></path>
                <path d="M21.6271186,30.5762712 C21.6271186,30.1638644 21.2937627,29.8305085 20.8813559,29.8305085 L19.3898305,29.8305085 C18.9774237,29.8305085 18.6440678,30.1638644 18.6440678,30.5762712 C18.6440678,30.988678 18.9774237,31.3220339 19.3898305,31.3220339 L20.8813559,31.3220339 C21.2937627,31.3220339 21.6271186,30.988678 21.6271186,30.5762712 Z" id="Shape"></path>
                <path d="M38.779661,27.1330847 C39.1920678,27.1330847 39.5254237,26.7997288 39.5254237,26.387322 L39.5254237,24.8957966 C39.5254237,24.4833898 39.1920678,24.1500339 38.779661,24.1500339 C38.3672542,24.1500339 38.0338983,24.4833898 38.0338983,24.8957966 L38.0338983,26.387322 C38.0338983,26.7997288 38.3672542,27.1330847 38.779661,27.1330847 Z" id="Shape"></path>
                <path d="M27.0063051,10.5010847 C27.1375593,10.5928136 27.2874576,10.6375593 27.4358644,10.6375593 C27.6700339,10.6375593 27.9004746,10.5279322 28.0458983,10.3221017 C28.2830508,9.98576271 28.2032542,9.52040678 27.8669153,9.28176271 L26.648339,8.42189831 C26.3105085,8.18623729 25.8466441,8.2660339 25.608,8.60088136 C25.3708475,8.93722034 25.4506441,9.40257627 25.7869831,9.64122034 L27.0063051,10.5010847 Z" id="Shape"></path>
                <path d="M38.0338983,29.8305085 L37.2881356,29.8305085 C36.8757288,29.8305085 36.5423729,30.1638644 36.5423729,30.5762712 C36.5423729,30.988678 36.8757288,31.3220339 37.2881356,31.3220339 L39.5254237,31.3220339 L39.5254237,29.3703729 C39.5254237,28.9579661 39.1920678,28.6246102 38.779661,28.6246102 C38.3672542,28.6246102 38.0338983,28.9579661 38.0338983,29.3703729 L38.0338983,29.8305085 Z" id="Shape"></path>
                <path d="M14.9152542,31.3220339 L16.4067797,31.3220339 C16.8191864,31.3220339 17.1525424,30.988678 17.1525424,30.5762712 C17.1525424,30.1638644 16.8191864,29.8305085 16.4067797,29.8305085 L14.9152542,29.8305085 C14.5028475,29.8305085 14.1694915,30.1638644 14.1694915,30.5762712 C14.1694915,30.988678 14.5028475,31.3220339 14.9152542,31.3220339 Z" id="Shape"></path>
                <path d="M13.4237288,20.8813559 C13.8361356,20.8813559 14.1694915,20.548 14.1694915,20.1355932 L14.1694915,18.6440678 C14.1694915,18.231661 13.8361356,17.8983051 13.4237288,17.8983051 C13.011322,17.8983051 12.6779661,18.231661 12.6779661,18.6440678 L12.6779661,20.1355932 C12.6779661,20.548 13.011322,20.8813559 13.4237288,20.8813559 Z" id="Shape"></path>
                <path d="M15.252339,17.3538983 C15.4007458,17.3538983 15.5506441,17.3091525 15.6818983,17.2174237 L16.9004746,16.3575593 C17.2368136,16.119661 17.3173559,15.6543051 17.0794576,15.3172203 C16.8423051,14.9816271 16.3776949,14.9010847 16.0391186,15.1382373 L14.8205424,15.9981017 C14.4842034,16.236 14.403661,16.7013559 14.6415593,17.0384407 C14.7877288,17.2435254 15.0181695,17.3538983 15.252339,17.3538983 Z" id="Shape"></path>
                <path d="M18.9080678,14.7735593 C19.0564746,14.7735593 19.2063729,14.7288136 19.3376271,14.6370847 L20.5562034,13.7772203 C20.8925424,13.539322 20.9730847,13.0739661 20.7351864,12.7368814 C20.4972881,12.4020339 20.0334237,12.3214915 19.6948475,12.5578983 L18.4762712,13.4177627 C18.1399322,13.655661 18.0593898,14.1210169 18.2972881,14.4581017 C18.4427119,14.6631864 18.6731525,14.7735593 18.9080678,14.7735593 Z" id="Shape"></path>
                <path d="M13.4237288,25.3559322 C13.8361356,25.3559322 14.1694915,25.0225763 14.1694915,24.6101695 L14.1694915,23.1186441 C14.1694915,22.7062373 13.8361356,22.3728814 13.4237288,22.3728814 C13.011322,22.3728814 12.6779661,22.7062373 12.6779661,23.1186441 L12.6779661,24.6101695 C12.6779661,25.0225763 13.011322,25.3559322 13.4237288,25.3559322 Z" id="Shape"></path>
                <path d="M22.5637966,12.1932203 C22.7122034,12.1932203 22.8621017,12.1484746 22.9933559,12.0567458 L24.2119322,11.1968814 C24.5482712,10.9589831 24.6288136,10.4936271 24.3909153,10.1565424 C24.1530169,9.82169492 23.6898983,9.73966102 23.3505763,9.97755932 L22.132,10.8374237 C21.795661,11.075322 21.7151186,11.540678 21.9530169,11.8777627 C22.0991864,12.0828475 22.3288814,12.1932203 22.5637966,12.1932203 Z" id="Shape"></path>
                <path d="M23.1186441,30.5762712 C23.1186441,30.988678 23.452,31.3220339 23.8644068,31.3220339 L25.3559322,31.3220339 C25.768339,31.3220339 26.1016949,30.988678 26.1016949,30.5762712 C26.1016949,30.1638644 25.768339,29.8305085 25.3559322,29.8305085 L23.8644068,29.8305085 C23.452,29.8305085 23.1186441,30.1638644 23.1186441,30.5762712 Z" id="Shape"></path>
                <path d="M13.4237288,29.8305085 C13.8361356,29.8305085 14.1694915,29.4971525 14.1694915,29.0847458 L14.1694915,27.5932203 C14.1694915,27.1808136 13.8361356,26.8474576 13.4237288,26.8474576 C13.011322,26.8474576 12.6779661,27.1808136 12.6779661,27.5932203 L12.6779661,29.0847458 C12.6779661,29.4971525 13.011322,29.8305085 13.4237288,29.8305085 Z" id="Shape"></path>
                <path d="M30.5762712,40.2711864 L40.2711864,40.2711864 L40.2711864,34.3050847 L30.5762712,34.3050847 L30.5762712,40.2711864 Z M32.0677966,35.7966102 L38.779661,35.7966102 L38.779661,38.779661 L32.0677966,38.779661 L32.0677966,35.7966102 Z" id="Shape"></path>
                <path d="M16.4067797,22.3728814 L16.4067797,23.8644068 C16.4067797,24.2768136 16.7401356,24.6101695 17.1525424,24.6101695 C17.5649492,24.6101695 17.8983051,24.2768136 17.8983051,23.8644068 L17.8983051,22.3728814 C17.8983051,21.9604746 17.5649492,21.6271186 17.1525424,21.6271186 C16.7401356,21.6271186 16.4067797,21.9604746 16.4067797,22.3728814 Z" id="Shape"></path>
                <path d="M23.1186441,20.1355932 C22.7062373,20.1355932 22.3728814,20.4689492 22.3728814,20.8813559 L22.3728814,22.3728814 C22.3728814,22.7852881 22.7062373,23.1186441 23.1186441,23.1186441 C23.5310508,23.1186441 23.8644068,22.7852881 23.8644068,22.3728814 L23.8644068,20.8813559 C23.8644068,20.4689492 23.5310508,20.1355932 23.1186441,20.1355932 Z" id="Shape"></path>
                <path d="M18.6440678,21.6271186 L20.1355932,21.6271186 C20.548,21.6271186 20.8813559,21.2937627 20.8813559,20.8813559 C20.8813559,20.4689492 20.548,20.1355932 20.1355932,20.1355932 L18.6440678,20.1355932 C18.231661,20.1355932 17.8983051,20.4689492 17.8983051,20.8813559 C17.8983051,21.2937627 18.231661,21.6271186 18.6440678,21.6271186 Z" id="Shape"></path>
                <path d="M19.3898305,26.8474576 C19.3898305,26.4350508 19.0564746,26.1016949 18.6440678,26.1016949 L17.1525424,26.1016949 C16.7401356,26.1016949 16.4067797,26.4350508 16.4067797,26.8474576 C16.4067797,27.2598644 16.7401356,27.5932203 17.1525424,27.5932203 L18.6440678,27.5932203 C19.0564746,27.5932203 19.3898305,27.2598644 19.3898305,26.8474576 Z" id="Shape"></path>
                <path d="M21.6271186,27.5932203 L23.1186441,27.5932203 C23.5310508,27.5932203 23.8644068,27.2598644 23.8644068,26.8474576 L23.8644068,25.3559322 C23.8644068,24.9435254 23.5310508,24.6101695 23.1186441,24.6101695 C22.7062373,24.6101695 22.3728814,24.9435254 22.3728814,25.3559322 L22.3728814,26.1016949 L21.6271186,26.1016949 C21.2147119,26.1016949 20.8813559,26.4350508 20.8813559,26.8474576 C20.8813559,27.2598644 21.2147119,27.5932203 21.6271186,27.5932203 Z" id="Shape"></path>
                <path d="M29.8305085,20.8813559 C29.8305085,21.2937627 30.1638644,21.6271186 30.5762712,21.6271186 L32.0677966,21.6271186 C32.4802034,21.6271186 32.8135593,21.2937627 32.8135593,20.8813559 C32.8135593,20.4689492 32.4802034,20.1355932 32.0677966,20.1355932 L30.5762712,20.1355932 C30.1638644,20.1355932 29.8305085,20.4689492 29.8305085,20.8813559 Z" id="Shape"></path>
                <path d="M34.3050847,20.8813559 L34.3050847,22.3728814 C34.3050847,22.7852881 34.6384407,23.1186441 35.0508475,23.1186441 C35.4632542,23.1186441 35.7966102,22.7852881 35.7966102,22.3728814 L35.7966102,20.8813559 C35.7966102,20.4689492 35.4632542,20.1355932 35.0508475,20.1355932 C34.6384407,20.1355932 34.3050847,20.4689492 34.3050847,20.8813559 Z" id="Shape"></path>
                <path d="M35.0508475,27.5932203 C35.4632542,27.5932203 35.7966102,27.2598644 35.7966102,26.8474576 L35.7966102,25.3559322 C35.7966102,24.9435254 35.4632542,24.6101695 35.0508475,24.6101695 C34.6384407,24.6101695 34.3050847,24.9435254 34.3050847,25.3559322 L34.3050847,26.1016949 L33.559322,26.1016949 C33.1469153,26.1016949 32.8135593,26.4350508 32.8135593,26.8474576 C32.8135593,27.2598644 33.1469153,27.5932203 33.559322,27.5932203 L35.0508475,27.5932203 Z" id="Shape"></path>
                <path d="M29.0847458,24.6101695 C29.4971525,24.6101695 29.8305085,24.2768136 29.8305085,23.8644068 L29.8305085,22.3728814 C29.8305085,21.9604746 29.4971525,21.6271186 29.0847458,21.6271186 C28.672339,21.6271186 28.3389831,21.9604746 28.3389831,22.3728814 L28.3389831,23.8644068 C28.3389831,24.2768136 28.672339,24.6101695 29.0847458,24.6101695 Z" id="Shape"></path>
                <path d="M29.0847458,27.5932203 L30.5762712,27.5932203 C30.988678,27.5932203 31.3220339,27.2598644 31.3220339,26.8474576 C31.3220339,26.4350508 30.988678,26.1016949 30.5762712,26.1016949 L29.0847458,26.1016949 C28.672339,26.1016949 28.3389831,26.4350508 28.3389831,26.8474576 C28.3389831,27.2598644 28.672339,27.5932203 29.0847458,27.5932203 Z" id="Shape"></path>
                <path d="M28.3389831,34.3050847 L24.6101695,34.3050847 C24.1977627,34.3050847 23.8644068,34.6384407 23.8644068,35.0508475 C23.8644068,35.4632542 24.1977627,35.7966102 24.6101695,35.7966102 L28.3389831,35.7966102 C28.7513898,35.7966102 29.0847458,35.4632542 29.0847458,35.0508475 C29.0847458,34.6384407 28.7513898,34.3050847 28.3389831,34.3050847 Z" id="Shape"></path>
                <path d="M28.3389831,36.5423729 L23.1186441,36.5423729 C22.7062373,36.5423729 22.3728814,36.8757288 22.3728814,37.2881356 C22.3728814,37.7005424 22.7062373,38.0338983 23.1186441,38.0338983 L28.3389831,38.0338983 C28.7513898,38.0338983 29.0847458,37.7005424 29.0847458,37.2881356 C29.0847458,36.8757288 28.7513898,36.5423729 28.3389831,36.5423729 Z" id="Shape"></path>
                <path d="M28.3389831,38.779661 L20.8813559,38.779661 C20.4689492,38.779661 20.1355932,39.1130169 20.1355932,39.5254237 C20.1355932,39.9378305 20.4689492,40.2711864 20.8813559,40.2711864 L28.3389831,40.2711864 C28.7513898,40.2711864 29.0847458,39.9378305 29.0847458,39.5254237 C29.0847458,39.1130169 28.7513898,38.779661 28.3389831,38.779661 Z" id="Shape"></path>
                <circle id="Oval" cx="2.98305085" cy="3.72881356" r="1"></circle>
                <circle id="Oval" cx="7.45762712" cy="3.72881356" r="1"></circle>
                <circle id="Oval" cx="5.22033898" cy="5.96610169" r="1"></circle>
                <circle id="Oval" cx="2.98305085" cy="8.20338983" r="1"></circle>
                <circle id="Oval" cx="7.45762712" cy="8.20338983" r="1"></circle>
                <circle id="Oval" cx="2.98305085" cy="12.6779661" r="1"></circle>
                <circle id="Oval" cx="7.45762712" cy="12.6779661" r="1"></circle>
                <circle id="Oval" cx="5.22033898" cy="10.440678" r="1"></circle>
                <circle id="Oval" cx="5.22033898" cy="14.9152542" r="1"></circle>
                <circle id="Oval" cx="2.98305085" cy="17.1525424" r="1"></circle>
                <circle id="Oval" cx="7.45762712" cy="17.1525424" r="1"></circle>
                <circle id="Oval" cx="2.98305085" cy="21.6271186" r="1"></circle>
                <circle id="Oval" cx="7.45762712" cy="21.6271186" r="1"></circle>
                <circle id="Oval" cx="5.22033898" cy="19.3898305" r="1"></circle>
                <circle id="Oval" cx="5.22033898" cy="23.8644068" r="1"></circle>
                <circle id="Oval" cx="2.98305085" cy="26.1016949" r="1"></circle>
                <circle id="Oval" cx="7.45762712" cy="26.1016949" r="1"></circle>
                <circle id="Oval" cx="2.98305085" cy="30.5762712" r="1"></circle>
                <circle id="Oval" cx="7.45762712" cy="30.5762712" r="1"></circle>
                <circle id="Oval" cx="5.22033898" cy="28.3389831" r="1"></circle>
                <circle id="Oval" cx="5.22033898" cy="32.8135593" r="1"></circle>
            </g>
        </g>
    </g>
</svg>