<?xml version="1.0" encoding="UTF-8"?>
<svg width="50px" height="50px" viewBox="0 0 50 50" version="1.1" xmlns="http://www.w3.org/2000/svg" xmlns:xlink="http://www.w3.org/1999/xlink">
    <!-- Generator: Sketch 46.2 (44496) - http://www.bohemiancoding.com/sketch -->
    <title>30</title>
    <desc>Created with Sketch.</desc>
    <defs></defs>
    <g id="Page-1" stroke="none" stroke-width="1" fill="none" fill-rule="evenodd" font-weight="bold" font-family="Lato-Bold, Lato" line-spacing="31" letter-spacing="1.60714293" font-size="18">
        <g id="Artboard" transform="translate(-542.000000, -412.000000)" fill="#2E2E2E">
            <text id="30">
                <tspan x="555.452857" y="476">30</tspan>
            </text>
        </g>
    </g>
</svg>