<?xml version="1.0" encoding="UTF-8"?>
<svg width="25px" height="25px" viewBox="0 0 25 25" version="1.1" xmlns="http://www.w3.org/2000/svg" xmlns:xlink="http://www.w3.org/1999/xlink">
    <!-- Generator: Sketch 46.2 (44496) - http://www.bohemiancoding.com/sketch -->
    <title>31</title>
    <desc>Created with Sketch.</desc>
    <defs></defs>
    <g id="Page-1" stroke="none" stroke-width="1" fill="none" fill-rule="evenodd">
        <g id="Artboard" transform="translate(-642.000000, -49.000000)">
            <path d="M658.668447,61.2485841 L651.948499,54.3051219 C651.503403,53.8982927 650.774344,53.8982927 650.333822,54.3051219 C649.888726,54.7119511 649.888726,55.3741507 650.333822,55.7809799 L656.349792,62 L650.333822,68.2190201 C649.888726,68.6258493 649.888726,69.2922289 650.333822,69.6948781 C650.776702,70.1017073 651.503403,70.1017073 651.948499,69.6948781 L658.668447,62.7514159 C658.895532,62.543854 659,62.2718944 659,62 C659,61.7281056 658.893317,61.4562113 658.668447,61.2485841 Z" id="Shape" fill="#4A4A4A" fill-rule="nonzero" transform="translate(654.500000, 62.000000) rotate(90.000000) translate(-654.500000, -62.000000) "></path>
            <text id="31" font-family="Lato-Bold, Lato" font-size="13" font-weight="bold" line-spacing="31" letter-spacing="1.16071427" fill="#2E2E2E">
                <tspan x="646.299286" y="83">31</tspan>
            </text>
        </g>
    </g>
</svg>