<?xml version="1.0" encoding="UTF-8"?>
<svg width="25px" height="25px" viewBox="0 0 25 25" version="1.1" xmlns="http://www.w3.org/2000/svg" xmlns:xlink="http://www.w3.org/1999/xlink">
    <!-- Generator: Sketch 46.2 (44496) - http://www.bohemiancoding.com/sketch -->
    <title>37</title>
    <desc>Created with Sketch.</desc>
    <defs></defs>
    <g id="Page-1" stroke="none" stroke-width="1" fill="none" fill-rule="evenodd">
        <g id="Artboard" transform="translate(-858.000000, -49.000000)">
            <g id="cloud-computing" transform="translate(861.000000, 53.000000)" fill-rule="nonzero" fill="#218AB0">
                <path d="M16.992,5.56466667 C16.816,2.56466667 14.343,0.166666667 11.3613333,0.166666667 C9.55133333,0.166666667 7.79866667,1.05433333 6.713,2.50266667 C6.688,2.48966667 6.66166667,2.48066667 6.63633333,2.46866667 C6.57033333,2.43666667 6.50333333,2.40633333 6.435,2.379 C6.397,2.364 6.359,2.35033333 6.32066667,2.337 C6.253,2.31333333 6.18433333,2.29233333 6.11433333,2.27333333 C6.076,2.263 6.038,2.25233333 5.99933333,2.24366667 C5.92433333,2.22666667 5.84766667,2.21366667 5.77033333,2.202 C5.73666667,2.197 5.70366667,2.19033333 5.66966667,2.18666667 C5.559,2.17433333 5.447,2.16666667 5.33333333,2.16666667 C3.679,2.16666667 2.33333333,3.51233333 2.33333333,5.16666667 C2.33333333,5.20966667 2.336,5.25166667 2.339,5.29366667 C0.952333333,6.04933333 0,7.633 0,9.218 C0,11.579 1.92066667,13.5 4.28166667,13.5 L6,13.5 C6.18433333,13.5 6.33333333,13.351 6.33333333,13.1666667 C6.33333333,12.9823333 6.18433333,12.8333333 6,12.8333333 L4.28166667,12.8333333 C2.28833333,12.8333333 0.666666667,11.2116667 0.666666667,9.218 C0.666666667,7.83333333 1.56833333,6.396 2.811,5.80033333 L3,5.71 L3,5.5 C3,5.46 3.00266667,5.41933333 3.005,5.37833333 L3.00866667,5.31666667 L3.00433333,5.252 C3.00233333,5.22366667 3,5.19533333 3,5.16666667 C3,3.88033333 4.047,2.83333333 5.33333333,2.83333333 C5.43633333,2.83333333 5.538,2.84233333 5.639,2.85566667 C5.665,2.859 5.691,2.86333333 5.71666667,2.86766667 C5.80566667,2.88233333 5.89333333,2.90166667 5.97966667,2.92666667 C5.99133333,2.93 6.00333333,2.93233333 6.015,2.93566667 C6.11,2.96466667 6.20266667,3.00133333 6.29333333,3.04266667 C6.317,3.05333333 6.34,3.065 6.36333333,3.07633333 C6.44333333,3.116 6.52166667,3.15933333 6.59733333,3.20833333 C7.23966667,3.62433333 7.66666667,4.346 7.66666667,5.16666667 C7.66666667,5.351 7.81566667,5.5 8,5.5 C8.18433333,5.5 8.33333333,5.351 8.33333333,5.16666667 C8.33333333,4.24866667 7.918,3.427 7.26666667,2.87633333 C8.22233333,1.62633333 9.796,0.833333333 11.3613333,0.833333333 C13.943,0.833333333 16.0873333,2.87833333 16.311,5.46266667 C15.9706667,5.43866667 15.4603333,5.42633333 14.95,5.504 C14.768,5.53166667 14.643,5.70166667 14.6706667,5.88366667 C14.6956667,6.04866667 14.8376667,6.167 14.9996667,6.167 C15.0163333,6.167 15.0333333,6.16566667 15.05,6.163 C15.7923333,6.05066667 16.566,6.156 16.6113333,6.16233333 C18.1633333,6.45733333 19.3333333,7.887 19.3333333,9.49066667 C19.3333333,11.3336667 17.8336667,12.8333333 15.9906667,12.8333333 L14.6666667,12.8333333 C14.4823333,12.8333333 14.3333333,12.9823333 14.3333333,13.1666667 C14.3333333,13.351 14.4823333,13.5 14.6666667,13.5 L15.9906667,13.5 C18.2013333,13.5 20,11.7013333 20,9.49066667 C20,7.661 18.7243333,6.02 16.992,5.56466667 Z" id="Shape"></path>
                <path d="M12.7643333,13.931 L10.6666667,16.0286667 L10.6666667,9.16666667 C10.6666667,8.98233333 10.5176667,8.83333333 10.3333333,8.83333333 C10.149,8.83333333 10,8.98233333 10,9.16666667 L10,16.0286667 L7.90233333,13.931 C7.772,13.8006667 7.56133333,13.8006667 7.431,13.931 C7.30066667,14.0613333 7.30066667,14.272 7.431,14.4023333 L10.0973333,17.0686667 C10.128,17.0996667 10.165,17.124 10.206,17.141 C10.2466667,17.158 10.29,17.1666667 10.3333333,17.1666667 C10.3766667,17.1666667 10.42,17.158 10.4606667,17.141 C10.5016667,17.124 10.5386667,17.0996667 10.5693333,17.0686667 L13.2356667,14.4023333 C13.366,14.272 13.366,14.0613333 13.2356667,13.931 C13.1053333,13.8006667 12.8946667,13.8006667 12.7643333,13.931 Z" id="Shape" transform="translate(10.333333, 13.000000) scale(1, -1) translate(-10.333333, -13.000000) "></path>
            </g>
            <text id="37" font-family="Lato-Bold, Lato" font-size="13" font-weight="bold" line-spacing="31" letter-spacing="1.16071427" fill="#2E2E2E">
                <tspan x="862.299286" y="83">37</tspan>
            </text>
        </g>
    </g>
</svg>