<?xml version="1.0" encoding="UTF-8"?>
<svg width="85px" height="85px" viewBox="0 0 85 85" version="1.1" xmlns="http://www.w3.org/2000/svg" xmlns:xlink="http://www.w3.org/1999/xlink">
    <!-- Generator: Sketch 46.2 (44496) - http://www.bohemiancoding.com/sketch -->
    <title>39</title>
    <desc>Created with Sketch.</desc>
    <defs>
        <polygon id="path-1" points="0 29.2911544 46.9362819 29.2911544 46.9362819 -1.42108547e-14 0 -1.42108547e-14"></polygon>
    </defs>
    <g id="Page-1" stroke="none" stroke-width="1" fill="none" fill-rule="evenodd">
        <g id="Artboard" transform="translate(-662.000000, -232.000000)">
            <g id="Group-26" transform="translate(667.000000, 249.000000)">
                <g id="Page-1" transform="translate(0.000000, 15.217391)">
                    <path d="M26.9387744,27.5267429 C28.1707084,27.5267429 29.1735945,26.5238568 29.1735945,25.2912481 C29.1735945,24.0593141 28.1707084,23.056428 26.9387744,23.056428 C25.7058283,23.056428 24.7032796,24.0593141 24.7032796,25.2912481 C24.7032796,26.5238568 25.7058283,27.5267429 26.9387744,27.5267429 Z M46.0539918,12.0577399 C46.5414355,12.0577399 46.9361132,12.4527549 46.9361132,12.9398613 C46.9361132,13.4273051 46.5414355,13.8219828 46.0539918,13.8219828 L44.5393741,13.8219828 L40.0855885,25.2274925 L41.0770052,27.0274925 C41.3121252,27.4542166 41.1572901,27.9905735 40.730566,28.2256934 C40.5946214,28.3002436 40.4492316,28.3356634 40.3055285,28.3356634 C39.994509,28.3356634 39.6922601,28.1703711 39.5313531,27.8785795 L38.59256,26.1733696 L30.8386619,26.1733696 C30.4358883,27.9561657 28.8409858,29.2909858 26.9387744,29.2909858 C24.7333021,29.2909858 22.9390367,27.4970577 22.9390367,25.2912481 C22.9390367,23.8022676 23.7574025,22.5011807 24.9680847,21.8126874 L23.6818403,17.5471327 C23.6086394,17.3025675 23.6440592,17.038437 23.7800037,16.822545 C23.9159483,16.6069903 24.138587,16.4599138 24.3909108,16.420446 L38.977455,14.1448088 C39.4588268,14.0689093 39.9101762,14.3991567 39.985401,14.8808658 C40.0602886,15.361563 39.7310532,15.8129123 39.2493441,15.8881372 L25.6643366,18.00759 L26.65744,21.3026424 C26.7495315,21.2965705 26.8439843,21.2921852 26.9387744,21.2921852 C28.8409858,21.2921852 30.4358883,22.6270052 30.8386619,24.4091267 L38.5109258,24.4091267 L43.1148238,12.6190592 C43.2467204,12.2803786 43.5735945,12.0577399 43.936563,12.0577399 L46.0539918,12.0577399 Z" id="Fill-1" fill="#FFFFFF"></path>
                    <mask id="mask-2" fill="white">
                        <use xlink:href="#path-1"></use>
                    </mask>
                    <g id="Clip-4"></g>
                    <path d="M1.76424288,27.5269115 L9.46990255,27.5269115 L9.46990255,23.8800225 L1.76424288,23.8800225 L1.76424288,27.5269115 Z M1.76458021,22.1147676 L4.7648051,22.1147676 L4.7648051,18.3120315 L1.76458021,18.3120315 L1.76458021,22.1147676 Z M1.76458021,16.5474513 L9.47023988,16.5474513 L9.47023988,12.7433658 L1.76458021,12.7433658 L1.76458021,16.5474513 Z M1.76458021,10.9787856 L4.7648051,10.9787856 L4.7648051,7.17604948 L1.76458021,7.17604948 L1.76458021,10.9787856 Z M1.76458021,5.41113193 L9.47023988,5.41113193 L9.47023988,1.76424288 L1.76458021,1.76424288 L1.76458021,5.41113193 Z M11.2341454,5.41113193 L20.0567091,5.41113193 L20.0567091,1.76424288 L11.2341454,1.76424288 L11.2341454,5.41113193 Z M21.8216267,5.41113193 L30.6441904,5.41113193 L30.6441904,1.76424288 L21.8216267,1.76424288 L21.8216267,5.41113193 Z M6.52837331,10.9791229 L14.8661919,10.9791229 L14.8661919,7.17638681 L6.52837331,7.17638681 L6.52837331,10.9791229 Z M20.9388306,27.5269115 L11.2341454,27.5269115 L11.2341454,23.8800225 L17.8218891,23.8800225 C18.3093328,23.8800225 18.7036732,23.4846702 18.7036732,22.997901 C18.7036732,22.5101199 18.3093328,22.1151049 17.8218891,22.1151049 L16.6307721,22.1151049 L16.6307721,18.3120315 L20.9388306,18.3120315 C21.4262744,18.3120315 21.8216267,17.9173538 21.8216267,17.42991 C21.8216267,16.9424663 21.4262744,16.5477886 20.9388306,16.5477886 L14.5133433,16.5477886 C14.0258996,16.5477886 13.6312219,16.9424663 13.6312219,17.42991 C13.6312219,17.9173538 14.0258996,18.3120315 14.5133433,18.3120315 L14.8661919,18.3120315 L14.8661919,22.1151049 L6.52871064,22.1151049 L6.52871064,18.3120315 L11.8224513,18.3120315 C12.3095577,18.3120315 12.70491,17.9173538 12.70491,17.42991 C12.70491,16.9424663 12.3095577,16.5477886 11.8224513,16.5477886 L11.2341454,16.5477886 L11.2341454,12.7433658 L19.3216642,12.7433658 C19.8091079,12.7433658 20.2044603,12.3486882 20.2044603,11.8612444 C20.2044603,11.3744753 19.8091079,10.9791229 19.3216642,10.9791229 L16.6307721,10.9791229 L16.6307721,7.17604948 L25.4533358,7.17604948 L25.4533358,10.9791229 L22.3212144,10.9791229 C21.8344453,10.9791229 21.439093,11.3744753 21.439093,11.8612444 C21.439093,12.3486882 21.8344453,12.7433658 22.3212144,12.7433658 L30.7909295,12.7433658 C31.278036,12.7433658 31.6733883,12.3486882 31.6733883,11.8612444 C31.6733883,11.3744753 31.278036,10.9791229 30.7909295,10.9791229 L27.2182534,10.9791229 L27.2182534,7.17604948 L36.0408171,7.17604948 L36.0408171,8.83706897 C36.0408171,9.32485007 36.4354948,9.71986507 36.9229385,9.71986507 C37.4097076,9.71986507 37.8043853,9.32485007 37.8043853,8.83706897 L37.8043853,7.17604948 L40.8484633,7.17604948 L40.8484633,8.99932534 C40.8484633,9.48676912 41.2438156,9.88144678 41.7312594,9.88144678 C42.2187031,9.88144678 42.6127061,9.48676912 42.6127061,8.99932534 L42.6127061,0.882121439 C42.6127061,0.395352324 42.2187031,-1.42108547e-14 41.7312594,-1.42108547e-14 L37.408021,-1.42108547e-14 C36.9202399,-1.42108547e-14 36.5255622,0.395352324 36.5255622,0.882121439 C36.5255622,1.36990255 36.9202399,1.76424288 37.408021,1.76424288 L40.8484633,1.76424288 L40.8484633,5.41113193 L32.4084333,5.41113193 L32.4084333,1.76424288 L33.7024363,1.76424288 C34.1895427,1.76424288 34.5845577,1.36990255 34.5845577,0.882121439 C34.5845577,0.395352324 34.1895427,-1.42108547e-14 33.7024363,-1.42108547e-14 L0.882458771,-1.42108547e-14 C0.395014993,-1.42108547e-14 0,0.395352324 0,0.882121439 L0,28.409033 C0,28.8958021 0.395014993,29.2911544 0.882458771,29.2911544 L20.9388306,29.2911544 C21.4262744,29.2911544 21.8216267,28.8958021 21.8216267,28.409033 C21.8216267,27.9212519 21.4262744,27.5269115 20.9388306,27.5269115 L20.9388306,27.5269115 Z" id="Fill-3" fill="#21AFB0" mask="url(#mask-2)"></path>
                    <path d="M21.9687369,22.1149363 L20.6302061,22.1149363 C20.1430997,22.1149363 19.748422,22.5102886 19.748422,22.9977324 C19.748422,23.4848388 20.1430997,23.8798538 20.6302061,23.8798538 L21.9687369,23.8798538 C22.455506,23.8798538 22.8508583,23.4848388 22.8508583,22.9977324 C22.8508583,22.5102886 22.455506,22.1149363 21.9687369,22.1149363" id="Fill-5" fill="#000000" mask="url(#mask-2)"></path>
                    <path d="M36.9229723,10.4111244 C36.4355285,10.4111244 36.0408508,10.8058021 36.0408508,11.2932459 L36.0408508,12.0188456 C36.0408508,12.5056147 36.4355285,12.900967 36.9229723,12.900967 C37.4097414,12.900967 37.804419,12.5056147 37.804419,12.0188456 L37.804419,11.2932459 C37.804419,10.8058021 37.4097414,10.4111244 36.9229723,10.4111244" id="Fill-6" fill="#000000" mask="url(#mask-2)"></path>
                </g>
                <g id="Group-19" transform="translate(2.173913, 0.000000)">
                    <path d="M69.1592568,13.131216 C71.2991774,14.4346673 72.3049559,17.2671469 71.4153913,19.7979705 C70.9352166,21.1626043 69.9716977,22.2495231 68.7525082,22.8427264 C68.7033814,23.0656432 68.6405202,23.2858999 68.5644529,23.5019004 C68.0684309,24.913884 67.0795562,26.0156994 65.78113,26.6041146 C64.8434951,27.0291993 63.8266234,27.1441159 62.8446159,26.94514 C61.6898723,27.9256546 60.3687315,28.569932 58.990012,28.8290262 L58.990012,39.6088348 L61.8145381,39.6088348 C62.5773239,39.6088348 63.1964271,40.2312993 63.1964271,41.0000696 C63.1964271,41.7683078 62.5773239,42.3913043 61.8145381,42.3913043 L53.4027645,42.3913043 C52.6399787,42.3913043 52.0214038,41.7683078 52.0214038,41.0000696 C52.0214038,40.2312993 52.6399787,39.6088348 53.4027645,39.6088348 L56.2267624,39.6088348 L56.2267624,28.8290262 C54.8480429,28.570464 53.5269021,27.9256546 52.3726867,26.94514 C51.3906793,27.1441159 50.3738076,27.0291993 49.4361727,26.6041146 C48.1372182,26.0156994 47.1488718,24.913884 46.6528497,23.5029644 C46.5767824,23.2858999 46.5139213,23.0656432 46.4642663,22.8427264 C45.245605,22.2495231 44.2810296,21.1626043 43.8019114,19.7985025 C42.9123468,17.2660828 43.9186535,14.4330712 46.0591023,13.1306839 C45.7685676,10.8429938 46.8715432,8.54466333 48.8381994,7.49658205 C48.4272247,4.99289144 49.7135013,2.4221662 51.9997458,1.46346444 C52.7424583,1.15223218 53.5210914,1.03252747 54.3139872,1.10967051 C55.0736035,1.1830894 55.630902,1.86194813 55.5585324,2.62752629 C55.4856346,3.39204039 54.8131787,3.95385452 54.0509212,3.87990361 C53.7139008,3.84745033 53.3811065,3.89905636 53.0615182,4.03312564 C51.8106341,4.5576983 51.1957569,6.12982022 51.6912507,7.53807968 C51.7208324,7.62373506 51.7551683,7.7061983 51.791089,7.78546943 C51.9706923,8.17810089 51.9585427,8.63244678 51.758866,9.01550187 C51.5586612,9.39696089 51.1936439,9.66456743 50.7699914,9.73798632 C50.6109896,9.76565141 50.4556856,9.8108732 50.3093617,9.87152358 C49.065873,10.3934361 48.451524,11.9522575 48.9327552,13.3551968 C49.1054913,13.7935821 49.0870028,14.2064303 48.9105689,14.5596922 C48.7346633,14.9129541 48.4166598,15.1741764 48.0384364,15.2773885 C47.9354286,15.3055856 47.8498529,15.3348468 47.7758986,15.3651719 C46.5265992,15.8892126 45.911722,17.4613345 46.4072158,18.870126 C46.6929963,19.683054 47.3120995,20.2868978 48.0627357,20.4837455 C48.6422205,20.6359035 49.0584775,21.1477077 49.0933417,21.7510194 C49.109189,22.0313945 49.1641265,22.3091094 49.2576259,22.5756519 C49.4990339,23.263023 49.9654742,23.7923838 50.5703148,24.0669067 C51.0975033,24.305252 51.6806858,24.3169565 52.2152697,24.0993599 C52.7297804,23.8892117 53.3214148,24.0105124 53.7133726,24.4079321 C54.8554383,25.5645456 56.2024631,26.1763697 57.6086513,26.1763697 C59.0148396,26.1763697 60.3618643,25.5645456 61.5044583,24.4079321 C61.8964161,24.0105124 62.486994,23.8892117 63.0020329,24.0993599 C63.5360886,24.3169565 64.1203276,24.3057841 64.6464597,24.0669067 C65.2518284,23.7923838 65.7177406,23.263023 65.9596768,22.5740559 C66.0526479,22.3091094 66.1081136,22.0313945 66.123961,21.7510194 C66.1582969,21.1477077 66.574554,20.6359035 67.1550952,20.4837455 C67.9052032,20.2868978 68.5243063,19.683054 68.8106151,18.869594 C69.3050524,17.4613345 68.6901752,15.8892126 67.4392911,15.3646399 C67.3669215,15.3348468 67.2813458,15.3055856 67.1788663,15.2773885 C66.8016993,15.1747084 66.4852806,14.9156142 66.3088467,14.5639484 C66.1324129,14.2128146 66.1112831,13.8031584 66.251268,13.4349999 C66.7652504,11.9506615 66.1509015,10.3934361 64.9063562,9.87152358 C64.7616171,9.8108732 64.606313,9.76565141 64.446783,9.73798632 C64.0231305,9.66456743 63.6586415,9.39696089 63.4589649,9.01550187 C63.25876,8.63244678 63.2466104,8.17810089 63.4256854,7.78546943 C63.4621343,7.7061983 63.495942,7.62373506 63.5255237,7.5386117 C63.9011059,6.47137767 63.6364552,5.25251767 62.8678587,4.50662429 C62.3184839,3.9735393 62.3026365,3.0925126 62.8314098,2.53921081 C63.3612395,1.98590902 64.2365415,1.96994839 64.7853881,2.50303338 C66.1086419,3.78786398 66.6891831,5.66855805 66.380688,7.49817811 C68.348929,8.54732343 69.4503198,10.847782 69.1592568,13.131216 Z" id="Fill-1" fill="#FFFFFF"></path>
                    <path d="M56.8663625,2.70510712 C57.3966381,2.70510712 57.8825873,3.03096132 58.1354122,3.55594865 C58.3756506,4.05352285 58.8955286,4.34782609 59.4383907,4.34782609 C59.6370389,4.34782609 59.8395177,4.30903392 60.0310517,4.22576007 C60.7512196,3.91593996 61.0680716,3.11371794 60.7402748,2.43407918 C60.0277682,0.955321768 58.5069882,0 56.8663625,0 C56.0761479,0 55.4347826,0.605157807 55.4347826,1.35255356 C55.4347826,2.09943208 56.0761479,2.70510712 56.8663625,2.70510712" id="Fill-3" fill="#21AFB0"></path>
                    <path d="M63.2104833,20.5689493 C63.363453,20.6260969 63.5190692,20.6521739 63.6720389,20.6521739 C64.2421024,20.6521739 64.776173,20.2804373 64.9773096,19.6851038 C65.7051066,17.5290313 64.7221837,15.0866662 62.7859792,14.2422137 C62.0798839,13.9342826 61.2700443,14.2843808 60.9757497,15.0245251 C60.683043,15.7641146 61.0159771,16.6135605 61.7226017,16.9214916 C62.3138375,17.1794879 62.6086614,18.0017472 62.3667682,18.7169241 C62.1121716,19.4726036 62.4900967,20.3020757 63.2104833,20.5689493" id="Fill-5" fill="#21AFB0"></path>
                    <path d="M52.4146136,13.1635644 C52.6157496,13.7582202 53.1498186,14.1304348 53.7193511,14.1304348 C53.8733789,14.1304348 54.0289947,14.1032537 54.1819639,14.0466726 C54.9023483,13.7787447 55.279743,12.9499987 55.0246178,12.1944752 C54.7832546,11.479446 55.0780777,10.6573566 55.6687823,10.3999683 C56.3748755,10.0915461 56.7088672,9.24227559 56.4151027,8.5028389 C56.120809,7.76284748 55.3115013,7.41282155 54.6054081,7.72013433 C52.6681508,8.56552183 51.6857603,11.0068278 52.4146136,13.1635644" id="Fill-7" fill="#21AFB0"></path>
                    <path d="M1.41876011,46.7391304 C0.635322407,46.7391304 0,47.4691014 0,48.3698769 C0,49.270029 0.635322407,50 1.41876011,50 L31.1899355,50 C31.9733732,50 32.6086957,49.270029 32.6086957,48.3698769 C32.6086957,47.4691014 31.9733732,46.7391304 31.1899355,46.7391304 L1.41876011,46.7391304 Z" id="Fill-9" fill="#FFFFFF"></path>
                    <path d="M36.0410633,46.7391304 C35.3464118,46.7391304 34.7826087,47.4691014 34.7826087,48.3698769 C34.7826087,49.270029 35.3464118,50 36.0410633,50 L37.8724612,50 C38.5671128,50 39.1304348,49.270029 39.1304348,48.3698769 C39.1304348,47.4691014 38.5671128,46.7391304 37.8724612,46.7391304 L36.0410633,46.7391304 Z" id="Fill-11" fill="#FFFFFF"></path>
                    <path d="M67.1092083,46.7391304 L44.847837,46.7391304 C44.0913242,46.7391304 43.4782609,47.4691014 43.4782609,48.3698769 C43.4782609,49.270029 44.0913242,50 44.847837,50 L67.1092083,50 C67.8651975,50 68.4782609,49.270029 68.4782609,48.3698769 C68.4782609,47.4691014 67.8651975,46.7391304 67.1092083,46.7391304" id="Fill-13" fill="#FFFFFF"></path>
                </g>
            </g>
            <text id="39" font-family="Lato-Bold, Lato" font-size="18" font-weight="bold" line-spacing="31" letter-spacing="1.60714293" fill="#2E2E2E">
                <tspan x="692.452857" y="221">39</tspan>
            </text>
        </g>
    </g>
</svg>