<?xml version="1.0" encoding="utf-8"?>
<!-- Generator: Adobe Illustrator 21.1.0, SVG Export Plug-In . SVG Version: 6.00 Build 0)  -->
<svg version="1.1" id="Layer_1" xmlns="http://www.w3.org/2000/svg" xmlns:xlink="http://www.w3.org/1999/xlink" x="0px" y="0px"
	 viewBox="0 0 60 60" style="enable-background:new 0 0 60 60;" xml:space="preserve">
<title>59</title>
<desc>Created with Sketch.</desc>
<g id="Group-6" transform="translate(863.000000, 802.000000)">
	<g id="_x30_05-grandmother-1" transform="translate(26.150121, 4.392857)">
		<path id="Shape" d="M-851.1-764.6l-1.5-2c-0.2-0.2-0.5-0.3-0.7-0.1c-0.2,0.2-0.3,0.5-0.1,0.7l1.5,2c0.2,0.2,0.3,0.5,0.3,0.8v6.2
			c0,0.3,0.2,0.5,0.5,0.5s0.5-0.2,0.5-0.5v-6.2C-850.7-763.7-850.8-764.2-851.1-764.6z"/>
		<path id="Shape_1_" d="M-836.1-769.3c0.4-0.5,0.7-1.2,0.7-1.9c0-1-0.5-1.9-1.3-2.5c0.1-0.2,0.1-0.4,0.1-0.6c0-1-0.6-1.9-1.5-2.2
			c0.1-0.5,0.2-1,0.3-1.5c1.2-1.3,1.9-3.1,1.9-4.9c0-5-4.1-9.1-9.1-9.1s-9.1,4.1-9.1,9.1c0,1.8,0.7,3.5,1.9,4.9c0,0.5,0.1,1,0.3,1.5
			c-0.9,0.3-1.5,1.2-1.5,2.2c0,0.2,0,0.4,0.1,0.6c-0.8,0.5-1.3,1.5-1.3,2.5c0,0.7,0.2,1.4,0.7,1.9c-1.2,0.9-1.9,2.3-1.9,3.8v8.4
			c0,0.3,0.2,0.5,0.5,0.5c0.3,0,0.5-0.2,0.5-0.5v-8.4c0-1.4,0.8-2.7,2.1-3.4l0.7-0.4c1.7,2.2,4.3,3.4,7.1,3.4c2.8,0,5.4-1.3,7.1-3.4
			l0.7,0.4c1.3,0.6,2.1,1.9,2.1,3.4v8.4c0,0.3,0.2,0.5,0.5,0.5c0.3,0,0.5-0.2,0.5-0.5v-8.4C-834.2-767-834.9-768.4-836.1-769.3z
			 M-853.1-782.9c0-4.5,3.6-8.1,8-8.1s8,3.6,8,8.1c0,1.2-0.3,2.3-0.9,3.3c-0.6-2.2-3-2.8-5.3-3.3c-1.6-0.4-3.3-0.8-4.6-1.6
			c-0.2-0.2-0.6-0.1-0.7,0.1c0,0-0.9,1.3-3,2.5c-0.2,0.1-0.3,0.5-0.2,0.7c0.1,0.3,0.5,0.3,0.7,0.2c1.6-0.9,2.6-1.9,3.1-2.4
			c1.4,0.8,3.1,1.2,4.5,1.5c0.5,0.1,1,0.2,1.4,0.3c-0.9,0-1.7,0.6-2.1,1.4c-0.3-0.1-0.6-0.2-0.9-0.2c-0.3,0-0.6,0.1-0.9,0.2
			c-0.4-0.8-1.2-1.4-2.2-1.4c-1.3,0-2.3,1.1-2.3,2.4c0,1.3,1.1,2.4,2.3,2.4c1.2,0,2.2-1,2.3-2.2c0.2-0.2,0.4-0.3,0.7-0.3
			s0.5,0.1,0.7,0.3c0.1,1.2,1.1,2.2,2.3,2.2c1.3,0,2.3-1.1,2.3-2.4c0-0.7-0.3-1.4-0.9-1.8c1.1,0.5,1.7,1.2,1.7,2.4
			c0,3.4-2.8,6.2-6.2,6.2c-3.3,0-6-2.6-6.2-5.9c0-0.1-0.1-0.3-0.2-0.4C-852.5-779.8-853.1-781.3-853.1-782.9z M-840.7-779.2
			c0,0.7-0.6,1.3-1.3,1.3s-1.3-0.6-1.3-1.3c0,0,0,0,0,0c0-0.7,0.6-1.3,1.3-1.3C-841.3-780.5-840.7-779.9-840.7-779.2z M-846.8-779.2
			C-846.8-779.2-846.8-779.2-846.8-779.2c0,0.7-0.6,1.3-1.3,1.3c-0.7,0-1.3-0.6-1.3-1.3c0-0.7,0.6-1.3,1.3-1.3
			C-847.4-780.5-846.8-779.9-846.8-779.2z M-841.6-771l0.4,0.2c-1,1-2.4,1.6-3.9,1.6c-1.5,0-2.8-0.6-3.9-1.6l0.4-0.2
			c0.4-0.2,0.6-0.5,0.8-0.8c0.8,0.3,1.7,0.5,2.7,0.5c1,0,1.9-0.2,2.7-0.5C-842.2-771.5-841.9-771.2-841.6-771z M-853.2-769.8
			c-0.3-0.4-0.5-0.8-0.5-1.3c0-0.8,0.4-1.4,1.1-1.8c0.1-0.1,0.2-0.2,0.3-0.3c0-0.1,0-0.3,0-0.4c-0.1-0.2-0.2-0.4-0.2-0.6
			c0-0.6,0.4-1.1,0.9-1.2c0.6,1.4,1.7,2.5,2.9,3.2c-0.1,0.1-0.2,0.3-0.3,0.3L-853.2-769.8z M-845.1-766.8c-2.4,0-4.6-1-6.1-2.9
			l1.3-0.7c1.3,1.3,3,2.1,4.8,2.1c1.8,0,3.6-0.8,4.8-2.1l1.3,0.7C-840.5-767.8-842.7-766.8-845.1-766.8z M-837-769.8l-4.1-2.1
			c-0.1-0.1-0.3-0.2-0.3-0.3c1.3-0.7,2.3-1.9,2.9-3.2c0.5,0.2,0.9,0.7,0.9,1.2c0,0.2-0.1,0.4-0.2,0.6c-0.1,0.1-0.1,0.3,0,0.4
			c0,0.1,0.1,0.2,0.3,0.3c0.7,0.3,1.1,1,1.1,1.8C-836.4-770.7-836.6-770.2-837-769.8z"/>
		<path id="Shape_2_" d="M-836.8-766.7c-0.2-0.2-0.6-0.1-0.7,0.1l-1.5,2c-0.3,0.4-0.5,0.9-0.5,1.4v6.2c0,0.3,0.2,0.5,0.5,0.5
			c0.3,0,0.5-0.2,0.5-0.5v-6.2c0-0.3,0.1-0.6,0.3-0.8l1.5-2C-836.5-766.2-836.6-766.5-836.8-766.7z"/>
	</g>
	<g id="_x30_06-grandfather-1">
	</g>
	<path id="Shape_3_" d="M-832.1-768.8l-4.7-1.3l-0.6-1.8c-0.1-0.2-0.2-0.3-0.4-0.4c-0.1,0-0.2,0-0.3,0v-0.2c0.4-0.3,0.9-0.6,1.3-1
		c1.5-1.4,2.4-3.2,2.7-5.2c1-0.1,1.9-0.9,2.1-1.9c0.1-0.7-0.1-1.3-0.4-1.8c0.7-0.4,1.1-1.1,1.1-2c0-0.7-0.3-1.4-0.9-1.8
		c0.1-0.3,0.2-0.6,0.2-0.9c0-1.2-0.9-2.2-2.1-2.3c-0.2-0.8-1-1.4-1.8-1.4c-0.3,0-0.5,0.1-0.7,0.1c-1.3-1-3-1.5-4.7-1.5h-2.7
		c-1.7,0-3.3,0.5-4.7,1.5c-0.2-0.1-0.5-0.2-0.7-0.2c-0.9,0-1.6,0.6-1.8,1.4c-1.2,0.1-2.1,1.1-2.1,2.3c0,0.3,0.1,0.6,0.2,0.9
		c-0.5,0.4-0.9,1.1-0.9,1.8c0,0.8,0.5,1.6,1.1,2c-0.4,0.5-0.5,1.1-0.4,1.8c0.2,1,1.1,1.8,2.1,1.9c0.3,2,1.2,3.8,2.7,5.2
		c0.4,0.4,0.8,0.7,1.3,1v0.2c-0.1,0-0.2,0-0.3,0c-0.2,0.1-0.3,0.2-0.4,0.4l-0.6,1.8l-4.7,1.3c-1.7,0.5-2.9,2.1-2.9,3.8v11.7
		c0,0.3,0.3,0.6,0.6,0.6s0.6-0.3,0.6-0.6V-765c0-0.5,0.1-1,0.4-1.5l2.7,3.2c0.3,0.4,0.5,0.9,0.5,1.4v8.6c0,0.3,0.3,0.6,0.6,0.6
		c0.3,0,0.6-0.3,0.6-0.6v-8.6c0-0.8-0.3-1.5-0.8-2.1l-2.8-3.4c0.3-0.2,0.6-0.3,0.9-0.4l3-0.8c0.4,0.9,2.5,5.1,6.9,8.2
		c0.1,0.1,0.2,0.1,0.3,0.1c0.1,0,0.2,0,0.3-0.1c4.3-3.1,6.4-7.3,6.9-8.2l3,0.8c0.3,0.1,0.6,0.2,0.9,0.4l-2.8,3.4
		c-0.5,0.6-0.8,1.3-0.8,2.1v8.6c0,0.3,0.3,0.6,0.6,0.6s0.6-0.3,0.6-0.6v-8.6c0-0.5,0.2-1,0.5-1.4l2.7-3.2c0.3,0.4,0.4,0.9,0.4,1.5
		v11.7c0,0.3,0.3,0.6,0.6,0.6c0.3,0,0.6-0.3,0.6-0.6V-765C-829.2-766.8-830.4-768.3-832.1-768.8z M-837.8-769.7l-2.1,2.6
		c0,0-0.1,0.1-0.1,0l-1.6-1.2l3.5-2.5L-837.8-769.7z M-842.6-769l-3.5-2.5v-0.3c1.1,0.5,2.3,0.7,3.5,0.7s2.4-0.3,3.5-0.7v0.3
		L-842.6-769z M-835.8-789.5c0.4,0,0.8,0.3,0.8,0.8c0,0,0,0,0,0c0,0.2,0.1,0.3,0.2,0.5s0.3,0.2,0.5,0.1c0.1,0,0.2,0,0.2,0
		c0.6,0,1.1,0.5,1.1,1.1c0,0.4-0.2,0.6-0.3,0.8c-0.1,0.1-0.2,0.3-0.1,0.5c0,0.2,0.2,0.3,0.4,0.4c0.4,0.2,0.7,0.6,0.7,1.1
		c0,0.6-0.5,1.1-1.1,1.1c-0.6,0-1.1-0.5-1.1-1.1c0-0.4,0.2-0.6,0.3-0.8c0.1-0.1,0.2-0.3,0.1-0.5s-0.2-0.3-0.4-0.4
		c-0.4-0.2-0.7-0.6-0.7-1.1c0-0.1,0-0.2,0-0.2c0-0.2,0-0.4-0.1-0.5c-0.1-0.1-0.3-0.2-0.4-0.2c0,0,0,0,0,0c0,0,0,0,0,0
		c-0.4,0-0.8-0.4-0.8-0.8C-836.6-789.1-836.2-789.5-835.8-789.5z M-852.8-784.2c0-0.5,0.3-0.9,0.7-1.1c0.2-0.1,0.3-0.2,0.4-0.4
		c0-0.2,0-0.4-0.1-0.5c-0.1-0.2-0.3-0.4-0.3-0.8c0-0.6,0.5-1.1,1.1-1.1c0.1,0,0.2,0,0.2,0c0.2,0,0.3,0,0.5-0.1
		c0.1-0.1,0.2-0.3,0.2-0.5c0,0,0,0,0,0c0-0.4,0.4-0.8,0.8-0.8c0.4,0,0.8,0.4,0.8,0.8c0,0.4-0.3,0.8-0.8,0.8c0,0,0,0,0,0
		c-0.2,0-0.3,0.1-0.5,0.2c-0.1,0.1-0.2,0.3-0.1,0.5c0,0.1,0,0.2,0,0.2c0,0.5-0.3,0.9-0.7,1.1c-0.2,0.1-0.3,0.2-0.4,0.4
		s0,0.4,0.1,0.5c0.1,0.2,0.3,0.4,0.3,0.8c0,0.6-0.5,1.1-1.1,1.1C-852.3-783.1-852.8-783.6-852.8-784.2z M-847.7-774.3
		c-1.4-1.3-2.2-3.1-2.4-4.9c0-0.3-0.3-0.5-0.6-0.5h-0.3c-0.6,0-1.1-0.4-1.2-0.9c-0.1-0.6,0.3-1.1,0.8-1.3c1.1-0.2,1.9-1.1,1.9-2.3
		c0-0.3-0.1-0.6-0.2-0.9c0.5-0.4,0.8-1,0.9-1.7c0.8-0.2,1.4-1,1.4-1.9c0-0.4-0.1-0.7-0.3-1c1.1-0.7,2.4-1.1,3.8-1.1h2.7
		c1.4,0,2.7,0.4,3.8,1.1c-0.2,0.3-0.3,0.7-0.3,1c0,0.9,0.6,1.6,1.4,1.9c0,0.7,0.4,1.3,0.9,1.7c-0.1,0.3-0.2,0.6-0.2,0.9
		c0,1.1,0.8,2.1,1.9,2.3c0.6,0.1,0.9,0.7,0.8,1.3c-0.1,0.5-0.6,0.9-1.2,0.9h-0.3c-0.3,0-0.5,0.2-0.6,0.5c-0.2,1.9-1,3.7-2.4,4.9
		c-1.4,1.3-3.2,2-5.1,2C-844.5-772.2-846.3-772.9-847.7-774.3z M-847-770.7l3.5,2.5l-1.6,1.2c0,0-0.1,0-0.1,0l-2.1-2.6L-847-770.7z
		 M-842.6-761.5c-3.6-2.7-5.6-6.3-6.1-7.4l0.5-0.1l2.1,2.6c0.2,0.3,0.6,0.5,1,0.5c0.3,0,0.5-0.1,0.7-0.3l1.3-1v3.6
		c0,0.3,0.3,0.6,0.6,0.6c0.3,0,0.6-0.3,0.6-0.6v-3.6l1.3,1c0.2,0.2,0.5,0.3,0.7,0.3c0.4,0,0.7-0.2,1-0.5l2.1-2.6l0.5,0.1
		C-837-767.7-838.9-764.2-842.6-761.5z"/>
</g>
</svg>
