<?xml version="1.0" encoding="UTF-8"?>
<svg width="60px" height="60px" viewBox="0 0 60 60" version="1.1" xmlns="http://www.w3.org/2000/svg" xmlns:xlink="http://www.w3.org/1999/xlink">
    <!-- Generator: Sketch 46.2 (44496) - http://www.bohemiancoding.com/sketch -->
    <title>68</title>
    <desc>Created with Sketch.</desc>
    <defs></defs>
    <g id="Page-1" stroke="none" stroke-width="1" fill="none" fill-rule="evenodd">
        <g id="Artboard" transform="translate(-1603.000000, -789.000000)" fill-rule="nonzero" fill="#000000">
            <g id="user" transform="translate(1617.000000, 800.000000)">
                <path d="M29.423087,30.7371167 L22.5698478,27.3143167 C21.9234783,26.9911 21.5217391,26.3418 21.5217391,25.6194 L21.5217391,23.19635 C21.6860217,22.9956833 21.858913,22.7670667 22.0375435,22.5148 C22.9263913,21.2606333 23.6387609,19.8645667 24.1567174,18.35885 C25.1689565,17.8951667 25.826087,16.8954167 25.826087,15.7666667 L25.826087,12.9 C25.826087,12.20985 25.5678261,11.5412 25.1086957,11.01875 L25.1086957,7.2068 C25.1488696,6.81263333 25.3066957,4.46626667 23.607913,2.53055 C22.1343913,0.8514 19.7433261,0 16.5,0 C13.2566739,0 10.8656087,0.8514 9.39208696,2.52983333 C7.69330435,4.46555 7.85113043,6.81263333 7.89130435,7.2068 L7.89130435,11.01875 C7.43217391,11.5412 7.17391304,12.20985 7.17391304,12.9 L7.17391304,15.7666667 C7.17391304,16.63885 7.57063043,17.4522667 8.24784783,17.9947833 C8.90497826,20.5941333 10.2802174,22.5527833 10.7608696,23.1813 L10.7608696,25.55275 C10.7608696,26.2464833 10.382087,26.8828833 9.77302174,27.2154167 L3.37317391,30.7027167 C1.29202174,31.8372 0,34.0115667 0,36.3794333 L0,38.7 C0,42.1013 10.7931522,43 16.5,43 C22.2068478,43 33,42.1013 33,38.7 L33,36.5191833 C33,34.0552833 31.6290652,31.83935 29.423087,30.7371167 Z M31.5652174,38.7 C31.5652174,39.6725167 26.247913,41.5666667 16.5,41.5666667 C6.75208696,41.5666667 1.43478261,39.6725167 1.43478261,38.7 L1.43478261,36.3794333 C1.43478261,34.5368833 2.44056522,32.8434 4.05971739,31.9619 L10.4595652,28.4746 C11.5306304,27.8905167 12.1956522,26.7703667 12.1956522,25.55275 L12.1956522,22.6724667 L12.0285,22.4732333 C12.0112826,22.45245 10.2529565,20.3275333 9.58219565,17.4099833 L9.51691304,17.1261833 L9.27228261,16.9685167 C8.85691304,16.7004833 8.60869565,16.2511333 8.60869565,15.7666667 L8.60869565,12.9 C8.60869565,12.49795 8.77943478,12.1231333 9.08934783,11.8429167 L9.32608696,11.6300667 L9.32608696,7.16666667 L9.31963043,7.07278333 C9.31747826,7.05343333 9.07356522,5.06683333 10.4710435,3.4744 C11.6597609,2.1199 13.6885435,1.43333333 16.5,1.43333333 C19.301413,1.43333333 21.3258913,2.11488333 22.5160435,3.46006667 C23.9128043,5.03745 23.6818043,7.05558333 23.6803696,7.07278333 L23.673913,11.6300667 L23.9106522,11.8436333 C24.2205652,12.1231333 24.3913043,12.49795 24.3913043,12.9 L24.3913043,15.7666667 C24.3913043,16.3923167 23.9809565,16.93985 23.3711739,17.1276167 L23.013913,17.2372667 L22.8991304,17.5920167 C22.4191957,19.0834 21.7355217,20.4608333 20.8660435,21.6863333 C20.6529783,21.98805 20.4456522,22.2553667 20.265587,22.4596167 L20.0869565,22.66315 L20.0869565,25.6194 C20.0869565,26.8879 20.7921522,28.0281167 21.9277826,28.5957167 L28.7810217,32.0185167 C30.4984565,32.8763667 31.5652174,34.6006667 31.5652174,36.5191833 L31.5652174,38.7 Z" id="Shape"></path>
            </g>
        </g>
    </g>
</svg>